…
 1 tzIdkxEH             0.330 -0.412  2010-07-22 00:16:19 -0.543
 2 LzMaGaBS4zwD7pdtmnP -0.820  0.252  2018-03-24 03:14:43 -0.433
 3 zwvufGGT9voopJQde    0.487 -0.892  2009-10-06 07:11:05 -0.649
 4 Yak34YOrd0TCkFcT4    0.738  0.436  2005-11-24 05:51:30  0.727
 5 EFH8Th               0.576 -1.24   2002-06-01 07:27:01  1.15 
 6 wuFFnV7RidZqYeZS    -0.305 -0.224  2002-12-28 14:24:25  0.992
 7 OLiD41               1.51   0.377  2007-04-30 08:45:20 -0.430
 8 WWmhgpaEeWYmBs       0.390  0.133  2011-05-17 14:57:32  1.24 
 9 mX0eVDds4           -0.621  0.804  2014-03-29 22:43:47 -0.279
10 VmjqYA              -2.21  -0.0571 2009-02-19 21:28:06  1.76 
> 
> # all double 25 x 4 table
> dbl_tbl <- gen_tbl(25, 4, col_types = "dddd")
> dbl_tbl
# A tibble: 25 × 4
       X1      X2       X3     X4
    <dbl>   <dbl>    <dbl>  <dbl>
 1  0.561 -1.43   -0.873   -1.12 
 2 -0.453  0.366   0.00837  0.336
 3 -0.832  0.248  -0.881    0.495
 4 -1.17   0.0653  0.596    0.138
 5 -1.07   0.0192  0.120   -0.119
 6 -1.56   0.257  -0.282    0.198
 7  1.16  -0.649   1.46    -1.07 
 8  0.832 -0.119   0.229   -0.803
 9 -0.227  0.664   0.997   -1.11 
10  0.266  1.10    0.782    1.58 
# ℹ 15 more rows
…
[[2]]
<collector_double>

[[3]]
<collector_double>

[[4]]
<collector_double>

> dbl_tbl2 <- gen_tbl(25, 4, col_types = types)
> dbl_tbl2
# A tibble: 25 × 4
      X1     X2     X3     X4
   <dbl>  <dbl>  <dbl>  <dbl>
 1  8.46 -3.83   0.276 19.7  
 2 20.8  18.5    3.98  -7.12 
 3  3.06 -7.60  18.4   21.0  
 4 -8.32  4.02  -7.30   6.52 
 5 -5.15 -5.06   2.73  -6.18 
 6  1.25 -3.23   5.49   1.66 
 7 -4.58 19.4   -4.52  19.3  
 8 -5.37 15.2   10.4   -0.310
 9 -2.25 -0.648 24.0   10.5  
10 -2.08  7.33  24.6   19.3  
# ℹ 15 more rows
…
ℹ Use `spec()` to retrieve the full column specification for this data.
ℹ Specify the column types or set `show_col_types = FALSE` to quiet this message.
# A tibble: 32 × 12
   model         mpg   cyl  disp    hp  drat    wt  qsec    vs    am  gear  carb
   <chr>       <dbl> <dbl> <dbl> <dbl> <dbl> <dbl> <dbl> <dbl> <dbl> <dbl> <dbl>
 1 Mazda RX4    21       6  160    110  3.9   2.62  16.5     0     1     4     4
 2 Mazda RX4 …  21       6  160    110  3.9   2.88  17.0     0     1     4     4
 3 Datsun 710   22.8     4  108     93  3.85  2.32  18.6     1     1     4     1
 4 Hornet 4 D…  21.4     6  258    110  3.08  3.22  19.4     1     0     3     1
 5 Hornet Spo…  18.7     8  360    175  3.15  3.44  17.0     0     0     3     2
 6 Valiant      18.1     6  225    105  2.76  3.46  20.2     1     0     3     1
 7 Duster 360   14.3     8  360    245  3.21  3.57  15.8     0     0     3     4
 8 Merc 240D    24.4     4  147.    62  3.69  3.19  20       1     0     4     2
 9 Merc 230     22.8     4  141.    95  3.92  3.15  22.9     1     0     4     2
10 Merc 280     19.2     6  168.   123  3.92  3.44  18.3     1     0     4     4
# ℹ 22 more rows
…
ℹ Use `spec()` to retrieve the full column specification for this data.
ℹ Specify the column types or set `show_col_types = FALSE` to quiet this message.
# A tibble: 32 × 3
   model               cyl  gear
   <chr>             <dbl> <dbl>
 1 Mazda RX4             6     4
 2 Mazda RX4 Wag         6     4
 3 Datsun 710            4     4
 4 Hornet 4 Drive        6     3
 5 Hornet Sportabout     8     3
 6 Valiant               6     3
 7 Duster 360            8     3
 8 Merc 240D             4     4
 9 Merc 230              4     4
10 Merc 280              6     4
# ℹ 22 more rows
> vroom(input_file, col_select = c(1, 3, 11))
Rows: 32 Columns: 3
── Column specification ────────────────────────────────────────────────────────
Delimiter: ","
chr (1): model
dbl (2): cyl, gear

ℹ Use `spec()` to retrieve the full column specification for this data.
ℹ Specify the column types or set `show_col_types = FALSE` to quiet this message.
# A tibble: 32 × 3
   model               cyl  gear
   <chr>             <dbl> <dbl>
 1 Mazda RX4             6     4
 2 Mazda RX4 Wag         6     4
 3 Datsun 710            4     4
 4 Hornet 4 Drive        6     3
 5 Hornet Sportabout     8     3
 6 Valiant               6     3
 7 Duster 360            8     3
 8 Merc 240D             4     4
 9 Merc 230              4     4
10 Merc 280              6     4
# ℹ 22 more rows
> 
> # Or use the selection helpers
> vroom(input_file, col_select = starts_with("d"))
Rows: 32 Columns: 2
── Column specification ────────────────────────────────────────────────────────
Delimiter: ","
dbl (2): disp, drat

ℹ Use `spec()` to retrieve the full column specification for this data.
ℹ Specify the column types or set `show_col_types = FALSE` to quiet this message.
# A tibble: 32 × 2
    disp  drat
   <dbl> <dbl>
 1  160   3.9 
 2  160   3.9 
 3  108   3.85
 4  258   3.08
 5  360   3.15
 6  225   2.76
 7  360   3.21
 8  147.  3.69
 9  141.  3.92
10  168.  3.92
# ℹ 22 more rows
> 
> # You can also rename specific columns
> vroom(input_file, col_select = c(car = model, everything()))
Rows: 32 Columns: 12
── Column specification ────────────────────────────────────────────────────────
Delimiter: ","
chr  (1): model
dbl (11): mpg, cyl, disp, hp, drat, wt, qsec, vs, am, gear, carb

ℹ Use `spec()` to retrieve the full column specification for this data.
ℹ Specify the column types or set `show_col_types = FALSE` to quiet this message.
# A tibble: 32 × 12
   car           mpg   cyl  disp    hp  drat    wt  qsec    vs    am  gear  carb
   <chr>       <dbl> <dbl> <dbl> <dbl> <dbl> <dbl> <dbl> <dbl> <dbl> <dbl> <dbl>
 1 Mazda RX4    21       6  160    110  3.9   2.62  16.5     0     1     4     4
 2 Mazda RX4 …  21       6  160    110  3.9   2.88  17.0     0     1     4     4
 3 Datsun 710   22.8     4  108     93  3.85  2.32  18.6     1     1     4     1
 4 Hornet 4 D…  21.4     6  258    110  3.08  3.22  19.4     1     0     3     1
 5 Hornet Spo…  18.7     8  360    175  3.15  3.44  17.0     0     0     3     2
 6 Valiant      18.1     6  225    105  2.76  3.46  20.2     1     0     3     1
 7 Duster 360   14.3     8  360    245  3.21  3.57  15.8     0     0     3     4
 8 Merc 240D    24.4     4  147.    62  3.69  3.19  20       1     0     4     2
 9 Merc 230     22.8     4  141.    95  3.92  3.15  22.9     1     0     4     2
10 Merc 280     19.2     6  168.   123  3.92  3.44  18.3     1     0     4     4
# ℹ 22 more rows
…
ℹ Use `spec()` to retrieve the full column specification for this data.
ℹ Specify the column types or set `show_col_types = FALSE` to quiet this message.
# A tibble: 43 × 12
   model         mpg   cyl  disp    hp  drat    wt  qsec    vs    am  gear  carb
   <chr>       <dbl> <dbl> <dbl> <dbl> <dbl> <dbl> <dbl> <dbl> <dbl> <dbl> <dbl>
 1 Datsun 710   22.8     4 108      93  3.85  2.32  18.6     1     1     4     1
 2 Merc 240D    24.4     4 147.     62  3.69  3.19  20       1     0     4     2
 3 Merc 230     22.8     4 141.     95  3.92  3.15  22.9     1     0     4     2
 4 Fiat 128     32.4     4  78.7    66  4.08  2.2   19.5     1     1     4     1
 5 Honda Civic  30.4     4  75.7    52  4.93  1.62  18.5     1     1     4     2
 6 Toyota Cor…  33.9     4  71.1    65  4.22  1.84  19.9     1     1     4     1
 7 Toyota Cor…  21.5     4 120.     97  3.7   2.46  20.0     1     0     3     1
 8 Fiat X1-9    27.3     4  79      66  4.08  1.94  18.9     1     1     4     1
 9 Porsche 91…  26       4 120.     91  4.43  2.14  16.7     0     1     5     2
10 Lotus Euro…  30.4     4  95.1   113  3.77  1.51  16.9     1     1     5     2
# ℹ 33 more rows
…
ℹ Use `spec()` to retrieve the full column specification for this data.
ℹ Specify the column types or set `show_col_types = FALSE` to quiet this message.
> dat$source <- basename(dat$source)
> dat
# A tibble: 43 × 13
   source      model   mpg   cyl  disp    hp  drat    wt  qsec    vs    am  gear
   <chr>       <chr> <dbl> <dbl> <dbl> <dbl> <dbl> <dbl> <dbl> <dbl> <dbl> <dbl>
 1 mtcars-4.c… Dats…  22.8     4 108      93  3.85  2.32  18.6     1     1     4
 2 mtcars-4.c… Merc…  24.4     4 147.     62  3.69  3.19  20       1     0     4
 3 mtcars-4.c… Merc…  22.8     4 141.     95  3.92  3.15  22.9     1     0     4
 4 mtcars-4.c… Fiat…  32.4     4  78.7    66  4.08  2.2   19.5     1     1     4
 5 mtcars-4.c… Hond…  30.4     4  75.7    52  4.93  1.62  18.5     1     1     4
 6 mtcars-4.c… Toyo…  33.9     4  71.1    65  4.22  1.84  19.9     1     1     4
 7 mtcars-4.c… Toyo…  21.5     4 120.     97  3.7   2.46  20.0     1     0     3
 8 mtcars-4.c… Fiat…  27.3     4  79      66  4.08  1.94  18.9     1     1     4
 9 mtcars-4.c… Pors…  26       4 120.     91  4.43  2.14  16.7     0     1     5
10 mtcars-4.c… Lotu…  30.4     4  95.1   113  3.77  1.51  16.9     1     1     5
# ℹ 33 more rows
# ℹ 1 more variable: carb <dbl>
…
