…
> ### Title: List all sheets in an excel spreadsheet
> ### Aliases: excel_sheets
> 
> ### ** Examples
> 
> excel_sheets(readxl_example("datasets.xlsx"))
[1] "mtcars"   "chickwts" "quakes"  
> excel_sheets(readxl_example("datasets.xls"))
[1] "mtcars"   "chickwts" "quakes"  
> 
> # To load all sheets in a workbook, use lapply()
> path <- readxl_example("datasets.xls")
> lapply(excel_sheets(path), read_excel, path = path)
[[1]]
# A tibble: 32 × 11
     mpg   cyl  disp    hp  drat    wt  qsec    vs    am  gear  carb
   <dbl> <dbl> <dbl> <dbl> <dbl> <dbl> <dbl> <dbl> <dbl> <dbl> <dbl>
 1  21       6  160    110  3.9   2.62  16.5     0     1     4     4
 2  21       6  160    110  3.9   2.88  17.0     0     1     4     4
 3  22.8     4  108     93  3.85  2.32  18.6     1     1     4     1
 4  21.4     6  258    110  3.08  3.22  19.4     1     0     3     1
 5  18.7     8  360    175  3.15  3.44  17.0     0     0     3     2
 6  18.1     6  225    105  2.76  3.46  20.2     1     0     3     1
 7  14.3     8  360    245  3.21  3.57  15.8     0     0     3     4
 8  24.4     4  147.    62  3.69  3.19  20       1     0     4     2
 9  22.8     4  141.    95  3.92  3.15  22.9     1     0     4     2
10  19.2     6  168.   123  3.92  3.44  18.3     1     0     4     4
# ℹ 22 more rows

[[2]]
# A tibble: 71 × 2
   weight feed     
    <dbl> <chr>    
 1    179 horsebean
 2    160 horsebean
 3    136 horsebean
 4    227 horsebean
 5    217 horsebean
 6    168 horsebean
 7    108 horsebean
 8    124 horsebean
 9    143 horsebean
10    140 horsebean
# ℹ 61 more rows

[[3]]
# A tibble: 1,000 × 5
     lat  long depth   mag stations
   <dbl> <dbl> <dbl> <dbl>    <dbl>
 1 -20.4  182.   562   4.8       41
 2 -20.6  181.   650   4.2       15
 3 -26    184.    42   5.4       43
 4 -18.0  182.   626   4.1       19
 5 -20.4  182.   649   4         11
 6 -19.7  184.   195   4         12
 7 -11.7  166.    82   4.8       43
 8 -28.1  182.   194   4.4       15
 9 -28.7  182.   211   4.7       35
10 -17.5  180.   622   4.3       19
# ℹ 990 more rows
…
> cleanEx()
> nameEx("read_excel")
> ### * read_excel
> 
> flush(stderr()); flush(stdout())
> 
> ### Name: read_excel
> ### Title: Read xls and xlsx files
> ### Aliases: read_excel read_xls read_xlsx
> 
> ### ** Examples
> 
> datasets <- readxl_example("datasets.xlsx")
> read_excel(datasets)
# A tibble: 32 × 11
     mpg   cyl  disp    hp  drat    wt  qsec    vs    am  gear  carb
   <dbl> <dbl> <dbl> <dbl> <dbl> <dbl> <dbl> <dbl> <dbl> <dbl> <dbl>
 1  21       6  160    110  3.9   2.62  16.5     0     1     4     4
 2  21       6  160    110  3.9   2.88  17.0     0     1     4     4
 3  22.8     4  108     93  3.85  2.32  18.6     1     1     4     1
 4  21.4     6  258    110  3.08  3.22  19.4     1     0     3     1
 5  18.7     8  360    175  3.15  3.44  17.0     0     0     3     2
 6  18.1     6  225    105  2.76  3.46  20.2     1     0     3     1
 7  14.3     8  360    245  3.21  3.57  15.8     0     0     3     4
 8  24.4     4  147.    62  3.69  3.19  20       1     0     4     2
 9  22.8     4  141.    95  3.92  3.15  22.9     1     0     4     2
10  19.2     6  168.   123  3.92  3.44  18.3     1     0     4     4
# ℹ 22 more rows
> 
> # Specify sheet either by position or by name
> read_excel(datasets, 2)
# A tibble: 71 × 2
   weight feed     
    <dbl> <chr>    
 1    179 horsebean
 2    160 horsebean
 3    136 horsebean
 4    227 horsebean
 5    217 horsebean
 6    168 horsebean
 7    108 horsebean
 8    124 horsebean
 9    143 horsebean
10    140 horsebean
# ℹ 61 more rows
> read_excel(datasets, "mtcars")
# A tibble: 32 × 11
     mpg   cyl  disp    hp  drat    wt  qsec    vs    am  gear  carb
   <dbl> <dbl> <dbl> <dbl> <dbl> <dbl> <dbl> <dbl> <dbl> <dbl> <dbl>
 1  21       6  160    110  3.9   2.62  16.5     0     1     4     4
 2  21       6  160    110  3.9   2.88  17.0     0     1     4     4
 3  22.8     4  108     93  3.85  2.32  18.6     1     1     4     1
 4  21.4     6  258    110  3.08  3.22  19.4     1     0     3     1
 5  18.7     8  360    175  3.15  3.44  17.0     0     0     3     2
 6  18.1     6  225    105  2.76  3.46  20.2     1     0     3     1
 7  14.3     8  360    245  3.21  3.57  15.8     0     0     3     4
 8  24.4     4  147.    62  3.69  3.19  20       1     0     4     2
 9  22.8     4  141.    95  3.92  3.15  22.9     1     0     4     2
10  19.2     6  168.   123  3.92  3.44  18.3     1     0     4     4
# ℹ 22 more rows
…
> # Skip rows and use default column names
> read_excel(datasets, skip = 10, col_names = FALSE)
New names:
• `` -> `...1`
• `` -> `...2`
• `` -> `...3`
• `` -> `...4`
• `` -> `...5`
• `` -> `...6`
• `` -> `...7`
• `` -> `...8`
• `` -> `...9`
• `` -> `...10`
• `` -> `...11`
# A tibble: 23 × 11
    ...1  ...2  ...3  ...4  ...5  ...6  ...7  ...8  ...9 ...10 ...11
   <dbl> <dbl> <dbl> <dbl> <dbl> <dbl> <dbl> <dbl> <dbl> <dbl> <dbl>
 1  19.2     6 168.    123  3.92  3.44  18.3     1     0     4     4
 2  17.8     6 168.    123  3.92  3.44  18.9     1     0     4     4
 3  16.4     8 276.    180  3.07  4.07  17.4     0     0     3     3
 4  17.3     8 276.    180  3.07  3.73  17.6     0     0     3     3
 5  15.2     8 276.    180  3.07  3.78  18       0     0     3     3
 6  10.4     8 472     205  2.93  5.25  18.0     0     0     3     4
 7  10.4     8 460     215  3     5.42  17.8     0     0     3     4
 8  14.7     8 440     230  3.23  5.34  17.4     0     0     3     4
 9  32.4     4  78.7    66  4.08  2.2   19.5     1     1     4     1
10  30.4     4  75.7    52  4.93  1.62  18.5     1     1     4     2
# ℹ 13 more rows
> 
> # Recycle a single column type
> read_excel(datasets, col_types = "text")
# A tibble: 32 × 11
   mpg               cyl   disp  hp    drat  wt    qsec  vs    am    gear  carb 
   <chr>             <chr> <chr> <chr> <chr> <chr> <chr> <chr> <chr> <chr> <chr>
 1 21                6     160   110   3.9   2.62  16.46 0     1     4     4    
 2 21                6     160   110   3.9   2.875 17.02 0     1     4     4    
 3 22.8              4     108   93    3.85  2.31… 18.61 1     1     4     1    
 4 21.4              6     258   110   3.08  3.21… 19.4… 1     0     3     1    
 5 18.7              8     360   175   3.15  3.44  17.02 0     0     3     2    
 6 18.1000000000000… 6     225   105   2.76  3.46  20.22 1     0     3     1    
 7 14.3              8     360   245   3.21  3.57  15.84 0     0     3     4    
 8 24.4              4     146.… 62    3.69  3.19  20    1     0     4     2    
 9 22.8              4     140.… 95    3.92  3.15  22.9  1     0     4     2    
10 19.2              6     167.6 123   3.92  3.44  18.3  1     0     4     4    
# ℹ 22 more rows
…
> # Specify the sheet as part of the range
> read_excel(datasets, range = "mtcars!B1:D5")
# A tibble: 4 × 3
    cyl  disp    hp
  <dbl> <dbl> <dbl>
1     6   160   110
2     6   160   110
3     4   108    93
4     6   258   110
> 
> # Read only specific rows or columns
> read_excel(datasets, range = cell_rows(102:151), col_names = FALSE)
# A tibble: 0 × 0
> read_excel(datasets, range = cell_cols("B:D"))
# A tibble: 32 × 3
     cyl  disp    hp
   <dbl> <dbl> <dbl>
 1     6  160    110
 2     6  160    110
 3     4  108     93
 4     6  258    110
 5     8  360    175
 6     6  225    105
 7     8  360    245
 8     4  147.    62
 9     4  141.    95
10     6  168.   123
# ℹ 22 more rows
…
# A tibble: 4 × 2
  NAME                 VALUE    
  <chr>                <chr>    
1 Name                 Clippy   
2 Species              paperclip
3 Approx date of death 39083    
4 Weight in grams      0.9      
> 
> # specify name repair as a custom function
> my_custom_name_repair <- function(nms) tolower(gsub("[.]", "_", nms))
> read_excel(
+   readxl_example("datasets.xlsx"),
+   .name_repair = my_custom_name_repair
+ )
# A tibble: 32 × 11
     mpg   cyl  disp    hp  drat    wt  qsec    vs    am  gear  carb
   <dbl> <dbl> <dbl> <dbl> <dbl> <dbl> <dbl> <dbl> <dbl> <dbl> <dbl>
 1  21       6  160    110  3.9   2.62  16.5     0     1     4     4
 2  21       6  160    110  3.9   2.88  17.0     0     1     4     4
 3  22.8     4  108     93  3.85  2.32  18.6     1     1     4     1
 4  21.4     6  258    110  3.08  3.22  19.4     1     0     3     1
 5  18.7     8  360    175  3.15  3.44  17.0     0     0     3     2
 6  18.1     6  225    105  2.76  3.46  20.2     1     0     3     1
 7  14.3     8  360    245  3.21  3.57  15.8     0     0     3     4
 8  24.4     4  147.    62  3.69  3.19  20       1     0     4     2
 9  22.8     4  141.    95  3.92  3.15  22.9     1     0     4     2
10  19.2     6  168.   123  3.92  3.44  18.3     1     0     4     4
# ℹ 22 more rows
> 
> # specify name repair as an anonymous function
> read_excel(
+   readxl_example("datasets.xlsx"),
+   sheet = "chickwts",
+   .name_repair = ~ substr(.x, start = 1, stop = 3)
+ )
# A tibble: 71 × 2
     wei fee      
   <dbl> <chr>    
 1   179 horsebean
 2   160 horsebean
 3   136 horsebean
 4   227 horsebean
 5   217 horsebean
 6   168 horsebean
 7   108 horsebean
 8   124 horsebean
 9   143 horsebean
10   140 horsebean
# ℹ 61 more rows
…
