…
37    0    0    0    0    0    0    0    0    0
38    0    0   16    0  124  130    0   15    0
39    0    0    0    0    0    0    0    0    0
40    0    0    0    0    0    0    1   12    0
> 
> # Pete Rose's primary position each year of his career
> Appearances %>% 
+    filter(playerID == "rosepe01") %>%
+    group_by(yearID, teamID) %>%
+    gather(pos, G, G_1b:G_rf) %>%
+    filter(G == max(G)) %>%
+    select(yearID:G_all, pos, G) %>%
+    mutate(pos = substring(as.character(pos), 3, 4)) %>%
+    arrange(yearID, teamID)
# A tibble: 25 × 7
# Groups:   yearID, teamID [25]
   yearID teamID lgID  playerID G_all pos       G
    <int> <fct>  <fct> <chr>    <int> <chr> <int>
 1   1963 CIN    NL    rosepe01   157 2b      157
 2   1964 CIN    NL    rosepe01   136 2b      128
 3   1965 CIN    NL    rosepe01   162 2b      161
 4   1966 CIN    NL    rosepe01   156 2b      140
 5   1967 CIN    NL    rosepe01   148 lf      124
 6   1968 CIN    NL    rosepe01   149 rf      142
 7   1969 CIN    NL    rosepe01   156 rf      101
 8   1970 CIN    NL    rosepe01   159 rf      155
 9   1971 CIN    NL    rosepe01   160 rf      156
10   1972 CIN    NL    rosepe01   154 lf      154
# ℹ 15 more rows
> 
> 
> # Most pitcher appearances each year since 1950
> Appearances %>%
+    filter(yearID >= 1950) %>%
+    group_by(yearID) %>%
+    summarise(maxPitcher = playerID[which.max(G_p)],
+              maxAppear = max(G_p))
# A tibble: 74 × 3
   yearID maxPitcher maxAppear
    <int> <chr>          <int>
 1   1950 konstji01         74
 2   1951 kindeel01         63
 3   1952 wilheho01         71
 4   1953 kindeel01         69
 5   1954 hugheji02         60
 6   1955 labincl01         60
 7   1956 facero01          68
 8   1957 lowntu01          67
 9   1958 elstodo01         69
10   1959 stalege01         67
# ℹ 64 more rows
…
The following objects are masked from ‘package:stats’:

    filter, lag

The following objects are masked from ‘package:base’:

    intersect, setdiff, setequal, union

> 
> # Sort in decreasing order of points by year and league
> AwardsShareManagers %>%
+    group_by(yearID, lgID) %>%
+    arrange(desc(pointsWon))
# A tibble: 510 × 7
# Groups:   yearID, lgID [82]
   awardID                  yearID lgID  playerID pointsWon pointsMax votesFirst
   <chr>                     <int> <fct> <chr>        <int>     <int>      <int>
 1 BBWAA Manager of the Ye…   2000 NL    bakerdu…       154       160         30
 2 BBWAA Manager of the Ye…   2005 NL    coxbo01        152       160         28
 3 BBWAA Manager of the Ye…   2011 NL    gibsoki…       152       160         28
 4 BBWAA Manager of the Ye…   2009 NL    tracyji…       151       160         29
 5 BBWAA Manager of the Ye…   2023 AL    hydebr99       144       150         27
 6 BBWAA Manager of the Ye…   2021 NL    kaplega…       143       150         28
 7 BBWAA Manager of the Ye…   2004 NL    coxbo01        140       160         22
 8 BBWAA Manager of the Ye…   2013 NL    hurdlcl…       140       150         25
 9 BBWAA Manager of the Ye…   1991 AL    kellyto…       138       140         27
10 BBWAA Manager of the Ye…   1994 NL    aloufe01       138       140         27
# ℹ 500 more rows
…
# Simple named list: list(mean = mean, median = median)

# Auto named with `tibble::lst()`: tibble::lst(mean, median)

# Using lambdas list(~ mean(., trim = .2), ~ median(., na.rm = TRUE))
# A tibble: 126 × 8
# Groups:   yearID [63]
   yearID lgID  InnOuts    PO     A     E  fpct   OPE
    <int> <fct>   <int> <int> <int> <int> <dbl> <dbl>
 1   1961 AL     389523 43213 17237  1506 0.976  259.
 2   1961 NL     297720 33080 13728  1167 0.976  255.
 3   1962 AL     391878 43449 17138  1364 0.978  287.
 4   1962 NL     391206 43470 17832  1555 0.975  252.
 5   1963 AL     392877 43589 16998  1347 0.978  292.
 6   1963 NL     392946 43661 17681  1577 0.975  249.
 7   1964 AL     394593 43774 17130  1261 0.98   313.
 8   1964 NL     392094 43566 17933  1586 0.975  247.
 9   1965 AL     392562 43546 17231  1359 0.978  289.
10   1965 NL     395384 43932 18008  1486 0.977  266.
# ℹ 116 more rows
…
