…
> flush(stderr()); flush(stdout())
> 
> ### Name: melt_delim
> ### Title: Return melted data for each token in a delimited file (including
> ###   csv & tsv)
> ### Aliases: melt_delim melt_csv melt_csv2 melt_tsv
> 
> ### ** Examples
> 
> # Input sources -------------------------------------------------------------
> # Read from a path
> melt_csv(readr_example("mtcars.csv"))
Warning: `melt_csv()` was deprecated in readr 2.0.0.
ℹ Please use `meltr::melt_csv()` instead
# A tibble: 363 × 4
     row   col data_type value
   <dbl> <dbl> <chr>     <chr>
 1     1     1 character mpg  
 2     1     2 character cyl  
 3     1     3 character disp 
 4     1     4 character hp   
 5     1     5 character drat 
 6     1     6 character wt   
 7     1     7 character qsec 
 8     1     8 character vs   
 9     1     9 character am   
10     1    10 character gear 
# ℹ 353 more rows
> melt_csv(readr_example("mtcars.csv.zip"))
# A tibble: 363 × 4
     row   col data_type value
   <dbl> <dbl> <chr>     <chr>
 1     1     1 character mpg  
 2     1     2 character cyl  
 3     1     3 character disp 
 4     1     4 character hp   
 5     1     5 character drat 
 6     1     6 character wt   
 7     1     7 character qsec 
 8     1     8 character vs   
 9     1     9 character am   
10     1    10 character gear 
# ℹ 353 more rows
> melt_csv(readr_example("mtcars.csv.bz2"))
# A tibble: 363 × 4
     row   col data_type value
   <dbl> <dbl> <chr>     <chr>
 1     1     1 character mpg  
 2     1     2 character cyl  
 3     1     3 character disp 
 4     1     4 character hp   
 5     1     5 character drat 
 6     1     6 character wt   
 7     1     7 character qsec 
 8     1     8 character vs   
 9     1     9 character am   
10     1    10 character gear 
# ℹ 353 more rows
…
> 
> flush(stderr()); flush(stdout())
> 
> ### Name: melt_delim_chunked
> ### Title: Melt a delimited file by chunks
> ### Aliases: melt_delim_chunked melt_csv_chunked melt_csv2_chunked
> ###   melt_tsv_chunked
> ### Keywords: internal
> 
> ### ** Examples
> 
> # Cars with 3 gears
> f <- function(x, pos) subset(x, data_type == "integer")
> melt_csv_chunked(readr_example("mtcars.csv"), DataFrameCallback$new(f), chunk_size = 5)
# A tibble: 218 × 4
     row   col data_type value
   <dbl> <dbl> <chr>     <chr>
 1     2     1 integer   21   
 2     2     2 integer   6    
 3     2     3 integer   160  
 4     2     4 integer   110  
 5     2     8 integer   0    
 6     2     9 integer   1    
 7     2    10 integer   4    
 8     2    11 integer   4    
 9     3     1 integer   21   
10     3     2 integer   6    
# ℹ 208 more rows
…
ℹ Use `spec()` to retrieve the full column specification for this data.
ℹ Specify the column types or set `show_col_types = FALSE` to quiet this message.
# A tibble: 32 × 11
     mpg   cyl  disp    hp  drat    wt  qsec    vs    am  gear  carb
   <dbl> <dbl> <dbl> <dbl> <dbl> <dbl> <dbl> <dbl> <dbl> <dbl> <dbl>
 1  21       6  160    110  3.9   2.62  16.5     0     1     4     4
 2  21       6  160    110  3.9   2.88  17.0     0     1     4     4
 3  22.8     4  108     93  3.85  2.32  18.6     1     1     4     1
 4  21.4     6  258    110  3.08  3.22  19.4     1     0     3     1
 5  18.7     8  360    175  3.15  3.44  17.0     0     0     3     2
 6  18.1     6  225    105  2.76  3.46  20.2     1     0     3     1
 7  14.3     8  360    245  3.21  3.57  15.8     0     0     3     4
 8  24.4     4  147.    62  3.69  3.19  20       1     0     4     2
 9  22.8     4  141.    95  3.92  3.15  22.9     1     0     4     2
10  19.2     6  168.   123  3.92  3.44  18.3     1     0     4     4
# ℹ 22 more rows
> read_csv(readr_example("mtcars.csv.zip"))
Rows: 32 Columns: 11
── Column specification ────────────────────────────────────────────────────────
Delimiter: ","
dbl (11): mpg, cyl, disp, hp, drat, wt, qsec, vs, am, gear, carb

ℹ Use `spec()` to retrieve the full column specification for this data.
ℹ Specify the column types or set `show_col_types = FALSE` to quiet this message.
# A tibble: 32 × 11
     mpg   cyl  disp    hp  drat    wt  qsec    vs    am  gear  carb
   <dbl> <dbl> <dbl> <dbl> <dbl> <dbl> <dbl> <dbl> <dbl> <dbl> <dbl>
 1  21       6  160    110  3.9   2.62  16.5     0     1     4     4
 2  21       6  160    110  3.9   2.88  17.0     0     1     4     4
 3  22.8     4  108     93  3.85  2.32  18.6     1     1     4     1
 4  21.4     6  258    110  3.08  3.22  19.4     1     0     3     1
 5  18.7     8  360    175  3.15  3.44  17.0     0     0     3     2
 6  18.1     6  225    105  2.76  3.46  20.2     1     0     3     1
 7  14.3     8  360    245  3.21  3.57  15.8     0     0     3     4
 8  24.4     4  147.    62  3.69  3.19  20       1     0     4     2
 9  22.8     4  141.    95  3.92  3.15  22.9     1     0     4     2
10  19.2     6  168.   123  3.92  3.44  18.3     1     0     4     4
# ℹ 22 more rows
> read_csv(readr_example("mtcars.csv.bz2"))
Rows: 32 Columns: 11
── Column specification ────────────────────────────────────────────────────────
Delimiter: ","
dbl (11): mpg, cyl, disp, hp, drat, wt, qsec, vs, am, gear, carb

ℹ Use `spec()` to retrieve the full column specification for this data.
ℹ Specify the column types or set `show_col_types = FALSE` to quiet this message.
# A tibble: 32 × 11
     mpg   cyl  disp    hp  drat    wt  qsec    vs    am  gear  carb
   <dbl> <dbl> <dbl> <dbl> <dbl> <dbl> <dbl> <dbl> <dbl> <dbl> <dbl>
 1  21       6  160    110  3.9   2.62  16.5     0     1     4     4
 2  21       6  160    110  3.9   2.88  17.0     0     1     4     4
 3  22.8     4  108     93  3.85  2.32  18.6     1     1     4     1
 4  21.4     6  258    110  3.08  3.22  19.4     1     0     3     1
 5  18.7     8  360    175  3.15  3.44  17.0     0     0     3     2
 6  18.1     6  225    105  2.76  3.46  20.2     1     0     3     1
 7  14.3     8  360    245  3.21  3.57  15.8     0     0     3     4
 8  24.4     4  147.    62  3.69  3.19  20       1     0     4     2
 9  22.8     4  141.    95  3.92  3.15  22.9     1     0     4     2
10  19.2     6  168.   123  3.92  3.44  18.3     1     0     4     4
# ℹ 22 more rows
…
ℹ Use `spec()` to retrieve the full column specification for this data.
ℹ Specify the column types or set `show_col_types = FALSE` to quiet this message.
# A tibble: 26 × 6
   file                                   country  year lifeExp    pop gdpPercap
   <chr>                                  <chr>   <dbl>   <dbl>  <dbl>     <dbl>
 1 /usr/local/lib/R/site-library/readr/e… Algeria  1952    43.1 9.28e6     2449.
 2 /usr/local/lib/R/site-library/readr/e… Angola   1952    30.0 4.23e6     3521.
 3 /usr/local/lib/R/site-library/readr/e… Benin    1952    38.2 1.74e6     1063.
 4 /usr/local/lib/R/site-library/readr/e… Botswa…  1952    47.6 4.42e5      851.
 5 /usr/local/lib/R/site-library/readr/e… Burkin…  1952    32.0 4.47e6      543.
 6 /usr/local/lib/R/site-library/readr/e… Burundi  1952    39.0 2.45e6      339.
 7 /usr/local/lib/R/site-library/readr/e… Argent…  1952    62.5 1.79e7     5911.
 8 /usr/local/lib/R/site-library/readr/e… Bolivia  1952    40.4 2.88e6     2677.
 9 /usr/local/lib/R/site-library/readr/e… Brazil   1952    50.9 5.66e7     2109.
10 /usr/local/lib/R/site-library/readr/e… Canada   1952    68.8 1.48e7    11367.
# ℹ 16 more rows
…
cols(
  mpg = col_double(),
  cyl = col_double(),
  disp = col_double(),
  hp = col_double(),
  drat = col_double(),
  wt = col_double(),
  qsec = col_double(),
  vs = col_double(),
  am = col_double(),
  gear = col_double(),
  carb = col_double()
)

# A tibble: 32 × 11
     mpg   cyl  disp    hp  drat    wt  qsec    vs    am  gear  carb
   <dbl> <dbl> <dbl> <dbl> <dbl> <dbl> <dbl> <dbl> <dbl> <dbl> <dbl>
 1  21       6  160    110  3.9   2.62  16.5     0     1     4     4
 2  21       6  160    110  3.9   2.88  17.0     0     1     4     4
 3  22.8     4  108     93  3.85  2.32  18.6     1     1     4     1
 4  21.4     6  258    110  3.08  3.22  19.4     1     0     3     1
 5  18.7     8  360    175  3.15  3.44  17.0     0     0     3     2
 6  18.1     6  225    105  2.76  3.46  20.2     1     0     3     1
 7  14.3     8  360    245  3.21  3.57  15.8     0     0     3     4
 8  24.4     4  147.    62  3.69  3.19  20       1     0     4     2
 9  22.8     4  141.    95  3.92  3.15  22.9     1     0     4     2
10  19.2     6  168.   123  3.92  3.44  18.3     1     0     4     4
# ℹ 22 more rows
…
