…
> ### Name: fct_count
> ### Title: Count entries in a factor
> ### Aliases: fct_count
> 
> ### ** Examples
> 
> f <- factor(sample(letters)[rpois(1000, 10)])
> table(f)
f
  a   b   d   e   f   g   i   j   k   l   m   n   p   q   r   s   t   u   w   x 
 29  40   7  19  94   8  39 106  72   7   2  87   1  67 113   3 102  11 138  52 
  y 
  3 
> fct_count(f)
# A tibble: 21 × 2
   f         n
   <fct> <int>
 1 a        29
 2 b        40
 3 d         7
 4 e        19
 5 f        94
 6 g         8
 7 i        39
 8 j       106
 9 k        72
10 l         7
# ℹ 11 more rows
> fct_count(f, sort = TRUE)
# A tibble: 21 × 2
   f         n
   <fct> <int>
 1 w       138
 2 r       113
 3 j       106
 4 t       102
 5 f        94
 6 n        87
 7 k        72
 8 q        67
 9 x        52
10 b        40
# ℹ 11 more rows
> fct_count(f, sort = TRUE, prop = TRUE)
# A tibble: 21 × 3
   f         n     p
   <fct> <int> <dbl>
 1 w       138 0.138
 2 r       113 0.113
 3 j       106 0.106
 4 t       102 0.102
 5 f        94 0.094
 6 n        87 0.087
 7 k        72 0.072
 8 q        67 0.067
 9 x        52 0.052
10 b        40 0.04 
# ℹ 11 more rows
…
> cleanEx()
> nameEx("gss_cat")
> ### * gss_cat
> 
> flush(stderr()); flush(stdout())
> 
> ### Name: gss_cat
> ### Title: A sample of categorical variables from the General Social survey
> ### Aliases: gss_cat
> ### Keywords: datasets
> 
> ### ** Examples
> 
> gss_cat
# A tibble: 21,483 × 9
    year marital         age race  rincome        partyid    relig denom tvhours
   <int> <fct>         <int> <fct> <fct>          <fct>      <fct> <fct>   <int>
 1  2000 Never married    26 White $8000 to 9999  Ind,near … Prot… Sout…      12
 2  2000 Divorced         48 White $8000 to 9999  Not str r… Prot… Bapt…      NA
 3  2000 Widowed          67 White Not applicable Independe… Prot… No d…       2
 4  2000 Never married    39 White Not applicable Ind,near … Orth… Not …       4
 5  2000 Divorced         25 White Not applicable Not str d… None  Not …       1
 6  2000 Married          25 White $20000 - 24999 Strong de… Prot… Sout…      NA
 7  2000 Never married    36 White $25000 or more Not str r… Chri… Not …       3
 8  2000 Divorced         44 White $7000 to 7999  Ind,near … Prot… Luth…      NA
 9  2000 Married          44 White $25000 or more Not str d… Prot… Other       0
10  2000 Married          47 White $25000 or more Strong re… Prot… Sout…       3
# ℹ 21,473 more rows
…
