…
  <chr>          <dbl>     <dbl>     <dbl>    <dbl>    <dbl>     <dbl> <chr>    
1 1|2            0.244     0.545    -2.59  9.66e- 3   0.0837     0.710 intercept
2 2|3            3.14      0.510     2.24  2.48e- 2   1.16       8.52  intercept
3 3|4           29.3       0.638     5.29  1.21e- 7   8.38     102.    intercept
4 4|5          140.        0.751     6.58  4.66e-11  32.1      610.    intercept
5 tempwarm      10.2       0.701     3.31  9.28e- 4   2.58      40.2   location 
6 contactyes     3.85      0.660     2.04  4.13e- 2   1.05      14.0   location 
7 tempwarm:c…    1.43      0.924     0.389 6.97e- 1   0.234      8.76  location 
> glance(fit)
# A tibble: 1 × 6
    edf   AIC   BIC logLik   df.residual  nobs
  <int> <dbl> <dbl> <logLik>       <dbl> <dbl>
1     7  187.  203. -86.4162          65    72
> augment(fit, type.predict = "prob")
# A tibble: 72 × 4
   rating temp  contact .fitted
   <ord>  <fct> <fct>     <dbl>
 1 2      cold  no       0.562 
 2 3      cold  no       0.209 
 3 3      cold  yes      0.435 
 4 4      cold  yes      0.0894
 5 4      warm  no       0.190 
 6 4      warm  no       0.190 
 7 5      warm  yes      0.286 
 8 5      warm  yes      0.286 
 9 1      cold  no       0.196 
10 2      cold  no       0.562 
# ℹ 62 more rows
> augment(fit, type.predict = "class")
# A tibble: 72 × 4
   rating temp  contact .fitted
   <ord>  <fct> <fct>   <fct>  
 1 2      cold  no      2      
 2 3      cold  no      2      
 3 3      cold  yes     3      
 4 4      cold  yes     3      
 5 4      warm  no      3      
 6 4      warm  no      3      
 7 5      warm  yes     4      
 8 5      warm  yes     4      
 9 1      cold  no      2      
10 2      cold  no      2      
# ℹ 62 more rows
…
1 s(hp)  2.36   3.02      6.34 0.00218
> tidy(g, parametric = TRUE)
# A tibble: 3 × 5
  term        estimate std.error statistic p.value
  <chr>          <dbl>     <dbl>     <dbl>   <dbl>
1 (Intercept)  16.7        9.83      1.70  0.101  
2 am            4.37       1.56      2.81  0.00918
3 qsec          0.0904     0.525     0.172 0.865  
> glance(g)
# A tibble: 1 × 9
     df logLik   AIC   BIC deviance df.residual  nobs adj.r.squared  npar
  <dbl>  <dbl> <dbl> <dbl>    <dbl>       <dbl> <int>         <dbl> <int>
1  5.36  -74.4  162.  171.     196.        26.6    32         0.797    12
> augment(g)
# A tibble: 32 × 11
   .rownames          mpg    am  qsec    hp .fitted .se.fit .resid   .hat .sigma
   <chr>            <dbl> <dbl> <dbl> <dbl>   <dbl>   <dbl>  <dbl>  <dbl> <lgl> 
 1 Mazda RX4         21       1  16.5   110    24.3   1.03  -3.25  0.145  NA    
 2 Mazda RX4 Wag     21       1  17.0   110    24.3   0.925 -3.30  0.116  NA    
 3 Datsun 710        22.8     1  18.6    93    26.0   0.894 -3.22  0.109  NA    
 4 Hornet 4 Drive    21.4     0  19.4   110    20.2   0.827  1.25  0.0930 NA    
 5 Hornet Sportabo…  18.7     0  17.0   175    15.7   0.815  3.02  0.0902 NA    
 6 Valiant           18.1     0  20.2   105    20.7   0.914 -2.56  0.113  NA    
 7 Duster 360        14.3     0  15.8   245    12.7   1.11   1.63  0.167  NA    
 8 Merc 240D         24.4     0  20      62    25.0   1.45  -0.618 0.287  NA    
 9 Merc 230          22.8     0  22.9    95    21.8   1.81   0.959 0.446  NA    
10 Merc 280          19.2     0  18.3   123    19.0   0.864  0.211 0.102  NA    
# ℹ 22 more rows
# ℹ 1 more variable: .cooksd <dbl>
…
> s <- summary(mod)
> tidy(s, conf.int = TRUE)
# A tibble: 3 × 7
  term        estimate std.error statistic  p.value conf.low conf.high
  <chr>          <dbl>     <dbl>     <dbl>    <dbl>    <dbl>     <dbl>
1 (Intercept)   19.7       5.25       3.76 7.65e- 4    9.00      30.5 
2 wt            -5.05      0.484    -10.4  2.52e-11   -6.04      -4.06
3 qsec           0.929     0.265      3.51 1.50e- 3    0.387      1.47
> glance(s)
# A tibble: 1 × 8
  r.squared adj.r.squared sigma statistic  p.value    df df.residual  nobs
      <dbl>         <dbl> <dbl>     <dbl>    <dbl> <dbl>       <int> <dbl>
1     0.826         0.814  2.60      69.0 9.39e-12     2          29    32
> augment(mod)
# A tibble: 32 × 10
   .rownames    mpg    wt  qsec .fitted  .resid   .hat .sigma .cooksd .std.resid
   <chr>      <dbl> <dbl> <dbl>   <dbl>   <dbl>  <dbl>  <dbl>   <dbl>      <dbl>
 1 Mazda RX4   21    2.62  16.5    21.8 -0.815  0.0693   2.64 2.63e-3    -0.325 
 2 Mazda RX4…  21    2.88  17.0    21.0 -0.0482 0.0444   2.64 5.59e-6    -0.0190
 3 Datsun 710  22.8  2.32  18.6    25.3 -2.53   0.0607   2.60 2.17e-2    -1.00  
 4 Hornet 4 …  21.4  3.22  19.4    21.6 -0.181  0.0576   2.64 1.05e-4    -0.0716
 5 Hornet Sp…  18.7  3.44  17.0    18.2  0.504  0.0389   2.64 5.29e-4     0.198 
 6 Valiant     18.1  3.46  20.2    21.1 -2.97   0.0957   2.58 5.10e-2    -1.20  
 7 Duster 360  14.3  3.57  15.8    16.4 -2.14   0.0729   2.61 1.93e-2    -0.857 
 8 Merc 240D   24.4  3.19  20      22.2  2.17   0.0791   2.61 2.18e-2     0.872 
 9 Merc 230    22.8  3.15  22.9    25.1 -2.32   0.295    2.59 1.59e-1    -1.07  
10 Merc 280    19.2  3.44  18.3    19.4 -0.185  0.0358   2.64 6.55e-5    -0.0728
# ℹ 22 more rows
> augment(mod, mtcars, interval = "confidence")
# A tibble: 32 × 20
   .rownames     mpg   cyl  disp    hp  drat    wt  qsec    vs    am  gear  carb
   <chr>       <dbl> <dbl> <dbl> <dbl> <dbl> <dbl> <dbl> <dbl> <dbl> <dbl> <dbl>
 1 Mazda RX4    21       6  160    110  3.9   2.62  16.5     0     1     4     4
 2 Mazda RX4 …  21       6  160    110  3.9   2.88  17.0     0     1     4     4
 3 Datsun 710   22.8     4  108     93  3.85  2.32  18.6     1     1     4     1
 4 Hornet 4 D…  21.4     6  258    110  3.08  3.22  19.4     1     0     3     1
 5 Hornet Spo…  18.7     8  360    175  3.15  3.44  17.0     0     0     3     2
 6 Valiant      18.1     6  225    105  2.76  3.46  20.2     1     0     3     1
 7 Duster 360   14.3     8  360    245  3.21  3.57  15.8     0     0     3     4
 8 Merc 240D    24.4     4  147.    62  3.69  3.19  20       1     0     4     2
 9 Merc 230     22.8     4  141.    95  3.92  3.15  22.9     1     0     4     2
10 Merc 280     19.2     6  168.   123  3.92  3.44  18.3     1     0     4     4
# ℹ 22 more rows
# ℹ 8 more variables: .fitted <dbl>, .lower <dbl>, .upper <dbl>, .resid <dbl>,
#   .hat <dbl>, .sigma <dbl>, .cooksd <dbl>, .std.resid <dbl>
…
> ### Name: augment.loess
> ### Title: Tidy a(n) loess object
> ### Aliases: augment.loess loess_tidiers
> 
> ### ** Examples
> 
> 
> lo <- loess(
+   mpg ~ hp + wt,
+   mtcars,
+   control = loess.control(surface = "direct")
+ )
> 
> augment(lo)
# A tibble: 32 × 6
   .rownames           mpg    hp    wt .fitted  .resid
   <chr>             <dbl> <dbl> <dbl>   <dbl>   <dbl>
 1 Mazda RX4          21     110  2.62    21.4 -0.435 
 2 Mazda RX4 Wag      21     110  2.88    20.9  0.0976
 3 Datsun 710         22.8    93  2.32    24.7 -1.88  
 4 Hornet 4 Drive     21.4   110  3.22    19.6  1.76  
 5 Hornet Sportabout  18.7   175  3.44    16.7  2.02  
 6 Valiant            18.1   105  3.46    18.9 -0.833 
 7 Duster 360         14.3   245  3.57    14.9 -0.641 
 8 Merc 240D          24.4    62  3.19    25.1 -0.695 
 9 Merc 230           22.8    95  3.15    21.4  1.43  
10 Merc 280           19.2   123  3.44    18.4  0.801 
# ℹ 22 more rows
> 
> # with all columns of original data
> augment(lo, mtcars)
# A tibble: 32 × 14
   .rownames     mpg   cyl  disp    hp  drat    wt  qsec    vs    am  gear  carb
   <chr>       <dbl> <dbl> <dbl> <dbl> <dbl> <dbl> <dbl> <dbl> <dbl> <dbl> <dbl>
 1 Mazda RX4    21       6  160    110  3.9   2.62  16.5     0     1     4     4
 2 Mazda RX4 …  21       6  160    110  3.9   2.88  17.0     0     1     4     4
 3 Datsun 710   22.8     4  108     93  3.85  2.32  18.6     1     1     4     1
 4 Hornet 4 D…  21.4     6  258    110  3.08  3.22  19.4     1     0     3     1
 5 Hornet Spo…  18.7     8  360    175  3.15  3.44  17.0     0     0     3     2
 6 Valiant      18.1     6  225    105  2.76  3.46  20.2     1     0     3     1
 7 Duster 360   14.3     8  360    245  3.21  3.57  15.8     0     0     3     4
 8 Merc 240D    24.4     4  147.    62  3.69  3.19  20       1     0     4     2
 9 Merc 230     22.8     4  141.    95  3.92  3.15  22.9     1     0     4     2
10 Merc 280     19.2     6  168.   123  3.92  3.44  18.3     1     0     4     4
# ℹ 22 more rows
# ℹ 2 more variables: .fitted <dbl>, .resid <dbl>
…
+ newdata <- head(mtcars)
+ newdata$wt <- newdata$wt + 1
+ 
+ augment(n, newdata = newdata)
+ ## Don't show: 
+ }) # examplesIf
> n <- nls(mpg ~ k * e^wt, data = mtcars, start = list(k = 1, e = 2))
> tidy(n)
# A tibble: 2 × 5
  term  estimate std.error statistic  p.value
  <chr>    <dbl>     <dbl>     <dbl>    <dbl>
1 k       49.7      3.79        13.1 5.96e-14
2 e        0.746    0.0199      37.5 8.86e-27
> augment(n)
# A tibble: 32 × 4
     mpg    wt .fitted .resid
   <dbl> <dbl>   <dbl>  <dbl>
 1  21    2.62    23.0 -2.01 
 2  21    2.88    21.4 -0.352
 3  22.8  2.32    25.1 -2.33 
 4  21.4  3.22    19.3  2.08 
 5  18.7  3.44    18.1  0.611
 6  18.1  3.46    18.0  0.117
 7  14.3  3.57    17.4 -3.11 
 8  24.4  3.19    19.5  4.93 
 9  22.8  3.15    19.7  3.10 
10  19.2  3.44    18.1  1.11 
# ℹ 22 more rows
…
+ newdata <- head(mtcars)
+ newdata$wt <- newdata$wt + 1
+ 
+ augment(n, newdata = newdata)
+ ## Don't show: 
+ }) # examplesIf
> n <- nls(mpg ~ k * e^wt, data = mtcars, start = list(k = 1, e = 2))
> tidy(n)
# A tibble: 2 × 5
  term  estimate std.error statistic  p.value
  <chr>    <dbl>     <dbl>     <dbl>    <dbl>
1 k       49.7      3.79        13.1 5.96e-14
2 e        0.746    0.0199      37.5 8.86e-27
> augment(n)
# A tibble: 32 × 4
     mpg    wt .fitted .resid
   <dbl> <dbl>   <dbl>  <dbl>
 1  21    2.62    23.0 -2.01 
 2  21    2.88    21.4 -0.352
 3  22.8  2.32    25.1 -2.33 
 4  21.4  3.22    19.3  2.08 
 5  18.7  3.44    18.1  0.611
 6  18.1  3.46    18.0  0.117
 7  14.3  3.57    17.4 -3.11 
 8  24.4  3.19    19.5  4.93 
 9  22.8  3.15    19.7  3.10 
10  19.2  3.44    18.1  1.11 
# ℹ 22 more rows
…
1 InflMedium       1.76     0.105       5.41    1.44      2.16  coefficient
2 InflHigh         3.63     0.127      10.1     2.83      4.66  coefficient
3 TypeApartment    0.564    0.119      -4.80    0.446     0.712 coefficient
4 TypeAtrium       0.693    0.155      -2.36    0.511     0.940 coefficient
5 TypeTerrace      0.336    0.151      -7.20    0.249     0.451 coefficient
6 ContHigh         1.43     0.0955      3.77    1.19      1.73  coefficient
7 Low|Medium       0.609    0.125      -3.97   NA        NA     scale      
8 Medium|High      2.00     0.125       5.50   NA        NA     scale      
> glance(fit)
# A tibble: 1 × 7
    edf logLik   AIC   BIC deviance df.residual  nobs
  <int>  <dbl> <dbl> <dbl>    <dbl>       <int> <int>
1     8 -1740. 3495. 3539.    3479.        1673  1681
> augment(fit, type.predict = "class")
# A tibble: 72 × 6
   Sat    Infl   Type      Cont  `(weights)` .fitted
   <ord>  <fct>  <fct>     <fct>       <int> <fct>  
 1 Low    Low    Tower     Low            21 Low    
 2 Medium Low    Tower     Low            21 Low    
 3 High   Low    Tower     Low            28 Low    
 4 Low    Medium Tower     Low            34 High   
 5 Medium Medium Tower     Low            22 High   
 6 High   Medium Tower     Low            36 High   
 7 Low    High   Tower     Low            10 High   
 8 Medium High   Tower     Low            11 High   
 9 High   High   Tower     Low            36 High   
10 Low    Low    Apartment Low            61 Low    
# ℹ 62 more rows
…
+ glance(r)
+ ## Don't show: 
+ }) # examplesIf
> library(MASS)
> r <- rlm(stack.loss ~ ., stackloss)
> tidy(r)
# A tibble: 4 × 4
  term        estimate std.error statistic
  <chr>          <dbl>     <dbl>     <dbl>
1 (Intercept)  -41.0       9.81     -4.18 
2 Air.Flow       0.829     0.111     7.46 
3 Water.Temp     0.926     0.303     3.05 
4 Acid.Conc.    -0.128     0.129    -0.992
> augment(r)
# A tibble: 21 × 10
   stack.loss Air.Flow Water.Temp Acid.Conc. .fitted .resid   .hat .sigma
        <dbl>    <dbl>      <dbl>      <dbl>   <dbl>  <dbl>  <dbl>  <dbl>
 1         42       80         27         89    38.9  3.05  0.327    3.32
 2         37       80         27         88    39.1 -2.08  0.343    3.39
 3         37       75         25         90    32.8  4.18  0.155    3.26
 4         28       62         24         87    21.5  6.50  0.0713   3.01
 5         18       62         22         87    19.6 -1.65  0.0562   3.42
 6         18       62         23         87    20.6 -2.57  0.0835   3.38
 7         19       62         24         93    20.7 -1.73  0.230    3.42
 8         20       62         24         93    20.7 -0.731 0.230    3.44
 9         15       58         23         87    17.3 -2.25  0.155    3.40
10         14       58         18         80    13.5  0.481 0.213    3.45
# ℹ 11 more rows
# ℹ 2 more variables: .cooksd <dbl>, .std.resid <dbl>
…
> tidy(mod1)
# A tibble: 4 × 5
  term              estimate conf.low conf.high   tau
  <chr>                <dbl>    <dbl>     <dbl> <dbl>
1 (Intercept)       -39.7     -53.8    -24.5      0.5
2 stack.xAir.Flow     0.832     0.509    1.17     0.5
3 stack.xWater.Temp   0.574     0.272    3.04     0.5
4 stack.xAcid.Conc.  -0.0609   -0.278    0.0153   0.5
> glance(mod1)
# A tibble: 1 × 5
    tau logLik      AIC   BIC df.residual
  <dbl> <logLik>  <dbl> <dbl>       <int>
1   0.5 -50.15272  108.  112.          17
> augment(mod1)
# A tibble: 21 × 5
   stack.loss stack.x[,"Air.Flow"] [,"Water.Temp"]    .resid .fitted  .tau
        <dbl>                <dbl>           <dbl>     <dbl>   <dbl> <dbl>
 1         42                   80              27  5.06e+ 0    36.9   0.5
 2         37                   80              27 -1.42e-14    37     0.5
 3         37                   75              25  5.43e+ 0    31.6   0.5
 4         28                   62              24  7.63e+ 0    20.4   0.5
 5         18                   62              22 -1.22e+ 0    19.2   0.5
 6         18                   62              23 -1.79e+ 0    19.8   0.5
 7         19                   62              24 -1.00e+ 0    20     0.5
 8         20                   62              24 -7.11e-15    20     0.5
 9         15                   58              23 -1.46e+ 0    16.5   0.5
10         14                   58              18 -2.03e- 2    14.0   0.5
# ℹ 11 more rows
# ℹ 1 more variable: stack.x[3] <dbl>
> tidy(mod2)
# A tibble: 1 × 5
  term        estimate conf.low conf.high   tau
  <chr>          <dbl> <lgl>    <lgl>     <dbl>
1 (Intercept)    0.390 NA       NA          0.5
> glance(mod2)
# A tibble: 1 × 5
    tau logLik      AIC   BIC df.residual
  <dbl> <logLik>  <dbl> <dbl>       <int>
1   0.5 -64.46761  131.  133.          49
> augment(mod2)
# A tibble: 50 × 5
   `rnorm(50)` `(weights)`  .resid .fitted  .tau
         <dbl>       <dbl>   <dbl>   <dbl> <dbl>
 1      -0.626       0.655 -1.02     0.390   0.5
 2       0.184       0.353 -0.206    0.390   0.5
 3      -0.836       0.270 -1.23     0.390   0.5
 4       1.60        0.993  1.21     0.390   0.5
 5       0.330       0.633 -0.0603   0.390   0.5
 6      -0.820       0.213 -1.21     0.390   0.5
 7       0.487       0.129  0.0976   0.390   0.5
 8       0.738       0.478  0.348    0.390   0.5
 9       0.576       0.924  0.186    0.390   0.5
10      -0.305       0.599 -0.695    0.390   0.5
# ℹ 40 more rows
> mod3 <- rq(stack.loss ~ stack.x, tau = c(0.25, 0.5))
> tidy(mod3)
# A tibble: 8 × 5
  term               estimate conf.low conf.high   tau
  <chr>                 <dbl>    <dbl>     <dbl> <dbl>
1 (Intercept)       -3.6 e+ 1  -59.0     -7.84    0.25
2 stack.xAir.Flow    5.00e- 1    0.229    0.970   0.25
3 stack.xWater.Temp  1.00e+ 0    0.286    2.26    0.25
4 stack.xAcid.Conc. -4.58e-16   -0.643    0.0861  0.25
5 (Intercept)       -3.97e+ 1  -53.8    -24.5     0.5 
6 stack.xAir.Flow    8.32e- 1    0.509    1.17    0.5 
7 stack.xWater.Temp  5.74e- 1    0.272    3.04    0.5 
8 stack.xAcid.Conc. -6.09e- 2   -0.278    0.0153  0.5 
> augment(mod3)
# A tibble: 42 × 5
   stack.loss stack.x[,"Air.Flow"] [,"Water.Temp"] .tau     .resid .fitted
        <dbl>                <dbl>           <dbl> <chr>     <dbl>   <dbl>
 1         42                   80              27 0.25   1.10e+ 1    31.0
 2         42                   80              27 0.5    5.06e+ 0    36.9
 3         37                   80              27 0.25   6.00e+ 0    31.0
 4         37                   80              27 0.5   -1.42e-14    37  
 5         37                   75              25 0.25   1.05e+ 1    26.5
 6         37                   75              25 0.5    5.43e+ 0    31.6
 7         28                   62              24 0.25   9.00e+ 0    19  
 8         28                   62              24 0.5    7.63e+ 0    20.4
 9         18                   62              22 0.25   1.00e+ 0    17.0
10         18                   62              22 0.5   -1.22e+ 0    19.2
# ℹ 32 more rows
# ℹ 1 more variable: stack.x[3] <dbl>
…
> tidy(mod1)
# A tibble: 4 × 5
  term              estimate conf.low conf.high   tau
  <chr>                <dbl>    <dbl>     <dbl> <dbl>
1 (Intercept)       -39.7     -53.8    -24.5      0.5
2 stack.xAir.Flow     0.832     0.509    1.17     0.5
3 stack.xWater.Temp   0.574     0.272    3.04     0.5
4 stack.xAcid.Conc.  -0.0609   -0.278    0.0153   0.5
> glance(mod1)
# A tibble: 1 × 5
    tau logLik      AIC   BIC df.residual
  <dbl> <logLik>  <dbl> <dbl>       <int>
1   0.5 -50.15272  108.  112.          17
> augment(mod1)
# A tibble: 21 × 5
   stack.loss stack.x[,"Air.Flow"] [,"Water.Temp"]    .resid .fitted  .tau
        <dbl>                <dbl>           <dbl>     <dbl>   <dbl> <dbl>
 1         42                   80              27  5.06e+ 0    36.9   0.5
 2         37                   80              27 -1.42e-14    37     0.5
 3         37                   75              25  5.43e+ 0    31.6   0.5
 4         28                   62              24  7.63e+ 0    20.4   0.5
 5         18                   62              22 -1.22e+ 0    19.2   0.5
 6         18                   62              23 -1.79e+ 0    19.8   0.5
 7         19                   62              24 -1.00e+ 0    20     0.5
 8         20                   62              24 -7.11e-15    20     0.5
 9         15                   58              23 -1.46e+ 0    16.5   0.5
10         14                   58              18 -2.03e- 2    14.0   0.5
# ℹ 11 more rows
# ℹ 1 more variable: stack.x[3] <dbl>
> tidy(mod2)
# A tibble: 1 × 5
  term        estimate conf.low conf.high   tau
  <chr>          <dbl> <lgl>    <lgl>     <dbl>
1 (Intercept)    0.390 NA       NA          0.5
> glance(mod2)
# A tibble: 1 × 5
    tau logLik      AIC   BIC df.residual
  <dbl> <logLik>  <dbl> <dbl>       <int>
1   0.5 -64.46761  131.  133.          49
> augment(mod2)
# A tibble: 50 × 5
   `rnorm(50)` `(weights)`  .resid .fitted  .tau
         <dbl>       <dbl>   <dbl>   <dbl> <dbl>
 1      -0.626       0.655 -1.02     0.390   0.5
 2       0.184       0.353 -0.206    0.390   0.5
 3      -0.836       0.270 -1.23     0.390   0.5
 4       1.60        0.993  1.21     0.390   0.5
 5       0.330       0.633 -0.0603   0.390   0.5
 6      -0.820       0.213 -1.21     0.390   0.5
 7       0.487       0.129  0.0976   0.390   0.5
 8       0.738       0.478  0.348    0.390   0.5
 9       0.576       0.924  0.186    0.390   0.5
10      -0.305       0.599 -0.695    0.390   0.5
# ℹ 40 more rows
…
