…
  <chr>        <chr>                                                            
1 CAHPS_GRP_1  CAHPS for MIPS SSM: Getting Timely Care, Appointments, and Infor…
2 CAHPS_GRP_2  CAHPS for MIPS SSM: How Well Providers Communicate               
3 CAHPS_GRP_3  CAHPS for MIPS SSM: Patient's Rating of Provider                 
4 CAHPS_GRP_5  CAHPS for MIPS SSM: Health Promotion and Education               
5 CAHPS_GRP_8  CAHPS for MIPS SSM: Courteous and Helpful Office Staff           
6 CAHPS_GRP_12 CAHPS for MIPS SSM: Stewardship of Patient Resources             
> 
> cms_patient_experience %>%
+   pivot_wider(
+     id_cols = starts_with("org"),
+     names_from = measure_cd,
+     values_from = prf_rate
+  )
# A tibble: 95 × 8
   org_pac_id org_nm CAHPS_GRP_1 CAHPS_GRP_2 CAHPS_GRP_3 CAHPS_GRP_5 CAHPS_GRP_8
   <chr>      <chr>        <dbl>       <dbl>       <dbl>       <dbl>       <dbl>
 1 0446157747 USC C…          63          87          86          57          85
 2 0446162697 ASSOC…          59          85          83          63          88
 3 0547164295 BEAVE…          49          NA          75          44          73
 4 0749333730 CAPE …          67          84          85          65          82
 5 0840104360 ALLIA…          66          87          87          64          87
 6 0840109864 REX H…          73          87          84          67          91
 7 0840513552 SCL H…          58          83          76          58          78
 8 0941545784 GRITM…          46          86          81          54          NA
 9 1052612785 COMMU…          65          84          80          58          87
10 1254237779 OUR L…          61          NA          NA          65          NA
# ℹ 85 more rows
# ℹ 1 more variable: CAHPS_GRP_12 <dbl>
> 
> cms_patient_care %>%
+   pivot_wider(
+     names_from = type,
+     values_from = score
+   )
# A tibble: 126 × 5
   ccn    facility_name                        measure_abbr denominator observed
   <chr>  <chr>                                <chr>              <dbl>    <dbl>
 1 011500 BAPTIST HOSPICE                      beliefs_add…         202    100  
 2 011500 BAPTIST HOSPICE                      composite_p…         202     88.1
 3 011500 BAPTIST HOSPICE                      dyspena_tre…         110     99.1
 4 011500 BAPTIST HOSPICE                      dyspnea_scr…         202    100  
 5 011500 BAPTIST HOSPICE                      opioid_bowel          61    100  
 6 011500 BAPTIST HOSPICE                      pain_assess…         107    100  
 7 011500 BAPTIST HOSPICE                      pain_screen…         202     88.6
 8 011500 BAPTIST HOSPICE                      treat_pref           202    100  
 9 011500 BAPTIST HOSPICE                      visits_immi…         232     96.1
10 011501 SOUTHERNCARE NEW BEACON N. BIRMINGH… beliefs_add…         525    100  
# ℹ 116 more rows
> 
> cms_patient_care %>%
+   pivot_wider(
+     names_from = measure_abbr,
+     values_from = score
+   )
# A tibble: 28 × 12
   ccn    facility_name                type  beliefs_addressed composite_process
   <chr>  <chr>                        <chr>             <dbl>             <dbl>
 1 011500 BAPTIST HOSPICE              deno…             202               202  
 2 011500 BAPTIST HOSPICE              obse…             100                88.1
 3 011501 SOUTHERNCARE NEW BEACON N. … deno…             525               525  
 4 011501 SOUTHERNCARE NEW BEACON N. … obse…             100               100  
 5 011502 COMFORT CARE COASTAL HOSPIC… deno…             295               295  
 6 011502 COMFORT CARE COASTAL HOSPIC… obse…             100                99.3
 7 011503 SAAD HOSPICE SERVICES        deno…             694               694  
 8 011503 SAAD HOSPICE SERVICES        obse…              99.9              96  
 9 011505 HOSPICE FAMILY CARE          deno…             600               600  
10 011505 HOSPICE FAMILY CARE          obse…              97.8              92  
# ℹ 18 more rows
# ℹ 7 more variables: dyspena_treatment <dbl>, dyspnea_screening <dbl>,
#   opioid_bowel <dbl>, pain_assessment <dbl>, pain_screening <dbl>,
#   treat_pref <dbl>, visits_imminent <dbl>
…
4 L    
> fruits %>% expand(type, size)
# A tibble: 8 × 2
  type   size 
  <chr>  <fct>
1 apple  XS   
2 apple  S    
3 apple  M    
4 apple  L    
5 orange XS   
6 orange S    
7 orange M    
8 orange L    
> fruits %>% expand(type, size, year)
# A tibble: 24 × 3
   type  size   year
   <chr> <fct> <dbl>
 1 apple XS     2010
 2 apple XS     2011
 3 apple XS     2012
 4 apple S      2010
 5 apple S      2011
 6 apple S      2012
 7 apple M      2010
 8 apple M      2011
 9 apple M      2012
10 apple L      2010
# ℹ 14 more rows
…
4 orange M    
> fruits %>% expand(nesting(type, size, year))
# A tibble: 5 × 3
  type   size   year
  <chr>  <fct> <dbl>
1 apple  XS     2010
2 apple  M      2012
3 orange S      2010
4 orange S      2011
5 orange M      2012
> 
> # Other uses ----------------------------------------------------------------
> # Use with `full_seq()` to fill in values of continuous variables
> fruits %>% expand(type, size, full_seq(year, 1))
# A tibble: 24 × 3
   type  size  `full_seq(year, 1)`
   <chr> <fct>               <dbl>
 1 apple XS                   2010
 2 apple XS                   2011
 3 apple XS                   2012
 4 apple S                    2010
 5 apple S                    2011
 6 apple S                    2012
 7 apple M                    2010
 8 apple M                    2011
 9 apple M                    2012
10 apple L                    2010
# ℹ 14 more rows
> fruits %>% expand(type, size, 2010:2013)
# A tibble: 32 × 3
   type  size  `2010:2013`
   <chr> <fct>       <int>
 1 apple XS           2010
 2 apple XS           2011
 3 apple XS           2012
 4 apple XS           2013
 5 apple S            2010
 6 apple S            2011
 7 apple S            2012
 8 apple S            2013
 9 apple M            2010
10 apple M            2011
# ℹ 22 more rows
> 
> # Use `anti_join()` to determine which observations are missing
> all <- fruits %>% expand(type, size, year)
> all
# A tibble: 24 × 3
   type  size   year
   <chr> <fct> <dbl>
 1 apple XS     2010
 2 apple XS     2011
 3 apple XS     2012
 4 apple S      2010
 5 apple S      2011
 6 apple S      2012
 7 apple M      2010
 8 apple M      2011
 9 apple M      2012
10 apple L      2010
# ℹ 14 more rows
…
10 apple  L      2012
11 orange XS     2010
12 orange XS     2011
13 orange XS     2012
14 orange S      2012
15 orange M      2010
16 orange M      2011
17 orange L      2010
18 orange L      2011
19 orange L      2012
> 
> # Use with `right_join()` to fill in missing rows (like `complete()`)
> fruits %>% dplyr::right_join(all)
Joining with `by = join_by(type, year, size)`
# A tibble: 25 × 4
   type    year size  weights
   <chr>  <dbl> <fct>   <dbl>
 1 apple   2010 XS       2.37
 2 orange  2010 S        4.18
 3 apple   2012 M        4.16
 4 orange  2010 S        5.60
 5 orange  2011 S        4.33
 6 orange  2012 M        4.18
 7 apple   2011 XS      NA   
 8 apple   2012 XS      NA   
 9 apple   2010 S       NA   
10 apple   2011 S       NA   
# ℹ 15 more rows
…
> 
> ### ** Examples
> 
> expand_grid(x = 1:3, y = 1:2)
# A tibble: 6 × 2
      x     y
  <int> <int>
1     1     1
2     1     2
3     2     1
4     2     2
5     3     1
6     3     2
> expand_grid(l1 = letters, l2 = LETTERS)
# A tibble: 676 × 2
   l1    l2   
   <chr> <chr>
 1 a     A    
 2 a     B    
 3 a     C    
 4 a     D    
 5 a     E    
 6 a     F    
 7 a     G    
 8 a     H    
 9 a     I    
10 a     J    
# ℹ 666 more rows
…
> ### Title: Gather columns into key-value pairs
> ### Aliases: gather
> 
> ### ** Examples
> 
> # From https://stackoverflow.com/questions/1181060
> stocks <- tibble(
+   time = as.Date("2009-01-01") + 0:9,
+   X = rnorm(10, 0, 1),
+   Y = rnorm(10, 0, 2),
+   Z = rnorm(10, 0, 4)
+ )
> 
> gather(stocks, "stock", "price", -time)
# A tibble: 30 × 3
   time       stock  price
   <date>     <chr>  <dbl>
 1 2009-01-01 X     -0.626
 2 2009-01-02 X      0.184
 3 2009-01-03 X     -0.836
 4 2009-01-04 X      1.60 
 5 2009-01-05 X      0.330
 6 2009-01-06 X     -0.820
 7 2009-01-07 X      0.487
 8 2009-01-08 X      0.738
 9 2009-01-09 X      0.576
10 2009-01-10 X     -0.305
# ℹ 20 more rows
> stocks %>% gather("stock", "price", -time)
# A tibble: 30 × 3
   time       stock  price
   <date>     <chr>  <dbl>
 1 2009-01-01 X     -0.626
 2 2009-01-02 X      0.184
 3 2009-01-03 X     -0.836
 4 2009-01-04 X      1.60 
 5 2009-01-05 X      0.330
 6 2009-01-06 X     -0.820
 7 2009-01-07 X      0.487
 8 2009-01-08 X      0.738
 9 2009-01-09 X      0.576
10 2009-01-10 X     -0.305
# ℹ 20 more rows
…
  <int> <int> <int> <int>
1     1     4     7     1
2     2     5     8     2
3     3     6     9     3
> 
> # .names_sep allows you to strip off common prefixes; this
> # acts as a natural inverse to name_sep in unpack()
> iris %>%
+   as_tibble() %>%
+   pack(
+     Sepal = starts_with("Sepal"),
+     Petal = starts_with("Petal"),
+     .names_sep = "."
+   )
# A tibble: 150 × 3
   Species Sepal$Length $Width Petal$Length $Width
   <fct>          <dbl>  <dbl>        <dbl>  <dbl>
 1 setosa           5.1    3.5          1.4    0.2
 2 setosa           4.9    3            1.4    0.2
 3 setosa           4.7    3.2          1.3    0.2
 4 setosa           4.6    3.1          1.5    0.2
 5 setosa           5      3.6          1.4    0.2
 6 setosa           5.4    3.9          1.7    0.4
 7 setosa           4.6    3.4          1.4    0.3
 8 setosa           5      3.4          1.5    0.2
 9 setosa           4.4    2.9          1.4    0.2
10 setosa           4.9    3.1          1.5    0.1
# ℹ 140 more rows
…
 9 Jehovah…      20        27        24        24        21        30         15
10 Jewish        19        19        25        25        30        95         69
11 Mainlin…     289       495       619       655       651      1107        939
12 Mormon        29        40        48        51        56       112         85
13 Muslim         6         7         9        10         9        23         16
14 Orthodox      13        17        23        32        32        47         38
15 Other C…       9         7        11        13        13        14         18
16 Other F…      20        33        40        46        49        63         46
17 Other W…       5         2         3         4         2         7          3
18 Unaffil…     217       299       374       365       341       528        407
# ℹ 3 more variables: `$100-150k` <dbl>, `>150k` <dbl>,
#   `Don't know/refused` <dbl>
> relig_income %>%
+   pivot_longer(!religion, names_to = "income", values_to = "count")
# A tibble: 180 × 3
   religion income             count
   <chr>    <chr>              <dbl>
 1 Agnostic <$10k                 27
 2 Agnostic $10-20k               34
 3 Agnostic $20-30k               60
 4 Agnostic $30-40k               81
 5 Agnostic $40-50k               76
 6 Agnostic $50-75k              137
 7 Agnostic $75-100k             122
 8 Agnostic $100-150k            109
 9 Agnostic >150k                 84
10 Agnostic Don't know/refused    96
# ℹ 170 more rows
> 
> # Slightly more complex case where columns have common prefix,
> # and missing missings are structural so should be dropped.
> billboard
# A tibble: 317 × 79
   artist     track date.entered   wk1   wk2   wk3   wk4   wk5   wk6   wk7   wk8
   <chr>      <chr> <date>       <dbl> <dbl> <dbl> <dbl> <dbl> <dbl> <dbl> <dbl>
 1 2 Pac      Baby… 2000-02-26      87    82    72    77    87    94    99    NA
 2 2Ge+her    The … 2000-09-02      91    87    92    NA    NA    NA    NA    NA
 3 3 Doors D… Kryp… 2000-04-08      81    70    68    67    66    57    54    53
 4 3 Doors D… Loser 2000-10-21      76    76    72    69    67    65    55    59
 5 504 Boyz   Wobb… 2000-04-15      57    34    25    17    17    31    36    49
 6 98^0       Give… 2000-08-19      51    39    34    26    26    19     2     2
 7 A*Teens    Danc… 2000-07-08      97    97    96    95   100    NA    NA    NA
 8 Aaliyah    I Do… 2000-01-29      84    62    51    41    38    35    35    38
 9 Aaliyah    Try … 2000-03-18      59    53    38    28    21    18    16    14
10 Adams, Yo… Open… 2000-08-26      76    76    74    69    68    67    61    58
# ℹ 307 more rows
# ℹ 68 more variables: wk9 <dbl>, wk10 <dbl>, wk11 <dbl>, wk12 <dbl>,
#   wk13 <dbl>, wk14 <dbl>, wk15 <dbl>, wk16 <dbl>, wk17 <dbl>, wk18 <dbl>,
#   wk19 <dbl>, wk20 <dbl>, wk21 <dbl>, wk22 <dbl>, wk23 <dbl>, wk24 <dbl>,
#   wk25 <dbl>, wk26 <dbl>, wk27 <dbl>, wk28 <dbl>, wk29 <dbl>, wk30 <dbl>,
#   wk31 <dbl>, wk32 <dbl>, wk33 <dbl>, wk34 <dbl>, wk35 <dbl>, wk36 <dbl>,
#   wk37 <dbl>, wk38 <dbl>, wk39 <dbl>, wk40 <dbl>, wk41 <dbl>, wk42 <dbl>, …
> billboard %>%
+   pivot_longer(
+     cols = starts_with("wk"),
+     names_to = "week",
+     names_prefix = "wk",
+     values_to = "rank",
+     values_drop_na = TRUE
+   )
# A tibble: 5,307 × 5
   artist  track                   date.entered week   rank
   <chr>   <chr>                   <date>       <chr> <dbl>
 1 2 Pac   Baby Don't Cry (Keep... 2000-02-26   1        87
 2 2 Pac   Baby Don't Cry (Keep... 2000-02-26   2        82
 3 2 Pac   Baby Don't Cry (Keep... 2000-02-26   3        72
 4 2 Pac   Baby Don't Cry (Keep... 2000-02-26   4        77
 5 2 Pac   Baby Don't Cry (Keep... 2000-02-26   5        87
 6 2 Pac   Baby Don't Cry (Keep... 2000-02-26   6        94
 7 2 Pac   Baby Don't Cry (Keep... 2000-02-26   7        99
 8 2Ge+her The Hardest Part Of ... 2000-09-02   1        91
 9 2Ge+her The Hardest Part Of ... 2000-09-02   2        87
10 2Ge+her The Hardest Part Of ... 2000-09-02   3        92
# ℹ 5,297 more rows
> 
> # Multiple variables stored in column names
> who %>% pivot_longer(
+   cols = new_sp_m014:newrel_f65,
+   names_to = c("diagnosis", "gender", "age"),
+   names_pattern = "new_?(.*)_(.)(.*)",
+   values_to = "count"
+ )
# A tibble: 405,440 × 8
   country     iso2  iso3   year diagnosis gender age   count
   <chr>       <chr> <chr> <dbl> <chr>     <chr>  <chr> <dbl>
 1 Afghanistan AF    AFG    1980 sp        m      014      NA
 2 Afghanistan AF    AFG    1980 sp        m      1524     NA
 3 Afghanistan AF    AFG    1980 sp        m      2534     NA
 4 Afghanistan AF    AFG    1980 sp        m      3544     NA
 5 Afghanistan AF    AFG    1980 sp        m      4554     NA
 6 Afghanistan AF    AFG    1980 sp        m      5564     NA
 7 Afghanistan AF    AFG    1980 sp        m      65       NA
 8 Afghanistan AF    AFG    1980 sp        f      014      NA
 9 Afghanistan AF    AFG    1980 sp        f      1524     NA
10 Afghanistan AF    AFG    1980 sp        f      2534     NA
# ℹ 405,430 more rows
…
5  11 11 11  8  8.33 9.26  7.81  8.47
6  14 14 14  8  9.96 8.10  8.84  7.04
7   6  6  6  8  7.24 6.13  6.08  5.25
8   4  4  4 19  4.26 3.10  5.39 12.50
9  12 12 12  8 10.84 9.13  8.15  5.56
10  7  7  7  8  4.82 7.26  6.42  7.91
11  5  5  5  8  5.68 4.74  5.73  6.89
> anscombe %>%
+   pivot_longer(
+     everything(),
+     cols_vary = "slowest",
+     names_to = c(".value", "set"),
+     names_pattern = "(.)(.)"
+   )
# A tibble: 44 × 3
   set       x     y
   <chr> <dbl> <dbl>
 1 1        10  8.04
 2 1         8  6.95
 3 1        13  7.58
 4 1         9  8.81
 5 1        11  8.33
 6 1        14  9.96
 7 1         6  7.24
 8 1         4  4.26
 9 1        12 10.8 
10 1         7  4.82
# ℹ 34 more rows
…
   .name              .value income            
   <chr>              <chr>  <chr>             
 1 <$10k              count  <$10k             
 2 $10-20k            count  $10-20k           
 3 $20-30k            count  $20-30k           
 4 $30-40k            count  $30-40k           
 5 $40-50k            count  $40-50k           
 6 $50-75k            count  $50-75k           
 7 $75-100k           count  $75-100k          
 8 $100-150k          count  $100-150k         
 9 >150k              count  >150k             
10 Don't know/refused count  Don't know/refused
> 
> pivot_longer_spec(relig_income, spec)
# A tibble: 180 × 3
   religion income             count
   <chr>    <chr>              <dbl>
 1 Agnostic <$10k                 27
 2 Agnostic $10-20k               34
 3 Agnostic $20-30k               60
 4 Agnostic $30-40k               81
 5 Agnostic $40-50k               76
 6 Agnostic $50-75k              137
 7 Agnostic $75-100k             122
 8 Agnostic $100-150k            109
 9 Agnostic >150k                 84
10 Agnostic Don't know/refused    96
# ℹ 170 more rows
> 
> # Is equivalent to:
> relig_income %>% pivot_longer(
+   cols = !religion,
+   names_to = "income",
+   values_to = "count"
+ )
# A tibble: 180 × 3
   religion income             count
   <chr>    <chr>              <dbl>
 1 Agnostic <$10k                 27
 2 Agnostic $10-20k               34
 3 Agnostic $20-30k               60
 4 Agnostic $30-40k               81
 5 Agnostic $40-50k               76
 6 Agnostic $50-75k              137
 7 Agnostic $75-100k             122
 8 Agnostic $100-150k            109
 9 Agnostic >150k                 84
10 Agnostic Don't know/refused    96
# ℹ 170 more rows
…
> nameEx("pivot_wider")
> ### * pivot_wider
> 
> flush(stderr()); flush(stdout())
> 
> ### Name: pivot_wider
> ### Title: Pivot data from long to wide
> ### Aliases: pivot_wider
> 
> ### ** Examples
> 
> # See vignette("pivot") for examples and explanation
> 
> fish_encounters
# A tibble: 114 × 3
   fish  station  seen
   <fct> <fct>   <int>
 1 4842  Release     1
 2 4842  I80_1       1
 3 4842  Lisbon      1
 4 4842  Rstr        1
 5 4842  Base_TD     1
 6 4842  BCE         1
 7 4842  BCW         1
 8 4842  BCE2        1
 9 4842  BCW2        1
10 4842  MAE         1
# ℹ 104 more rows
…
 9 4851        1     1      0     0       0     0     0     0     0     0     0
10 4854        1     1      0     0       0     0     0     0     0     0     0
11 4855        1     1      1     1       1     0     0     0     0     0     0
12 4857        1     1      1     1       1     1     1     1     1     0     0
13 4858        1     1      1     1       1     1     1     1     1     1     1
14 4859        1     1      1     1       1     0     0     0     0     0     0
15 4861        1     1      1     1       1     1     1     1     1     1     1
16 4862        1     1      1     1       1     1     1     1     1     0     0
17 4863        1     1      0     0       0     0     0     0     0     0     0
18 4864        1     1      0     0       0     0     0     0     0     0     0
19 4865        1     1      1     0       0     0     0     0     0     0     0
> 
> # Generate column names from multiple variables
> us_rent_income
# A tibble: 104 × 5
   GEOID NAME       variable estimate   moe
   <chr> <chr>      <chr>       <dbl> <dbl>
 1 01    Alabama    income      24476   136
 2 01    Alabama    rent          747     3
 3 02    Alaska     income      32940   508
 4 02    Alaska     rent         1200    13
 5 04    Arizona    income      27517   148
 6 04    Arizona    rent          972     4
 7 05    Arkansas   income      23789   165
 8 05    Arkansas   rent          709     5
 9 06    California income      29454   109
10 06    California rent         1358     3
# ℹ 94 more rows
…
