…
> cleanEx()
> nameEx("read_dta")
> ### * read_dta
> 
> flush(stderr()); flush(stdout())
> 
> ### Name: read_dta
> ### Title: Read and write Stata DTA files
> ### Aliases: read_dta read_stata write_dta
> 
> ### ** Examples
> 
> path <- system.file("examples", "iris.dta", package = "haven")
> read_dta(path)
# A tibble: 150 × 5
   sepallength sepalwidth petallength petalwidth species
         <dbl>      <dbl>       <dbl>      <dbl> <chr>  
 1        5.10       3.5         1.40      0.200 setosa 
 2        4.90       3           1.40      0.200 setosa 
 3        4.70       3.20        1.30      0.200 setosa 
 4        4.60       3.10        1.5       0.200 setosa 
 5        5          3.60        1.40      0.200 setosa 
 6        5.40       3.90        1.70      0.400 setosa 
 7        4.60       3.40        1.40      0.300 setosa 
 8        5          3.40        1.5       0.200 setosa 
 9        4.40       2.90        1.40      0.200 setosa 
10        4.90       3.10        1.5       0.100 setosa 
# ℹ 140 more rows
> 
> tmp <- tempfile(fileext = ".dta")
> write_dta(mtcars, tmp)
> read_dta(tmp)
# A tibble: 32 × 11
     mpg   cyl  disp    hp  drat    wt  qsec    vs    am  gear  carb
   <dbl> <dbl> <dbl> <dbl> <dbl> <dbl> <dbl> <dbl> <dbl> <dbl> <dbl>
 1  21       6  160    110  3.9   2.62  16.5     0     1     4     4
 2  21       6  160    110  3.9   2.88  17.0     0     1     4     4
 3  22.8     4  108     93  3.85  2.32  18.6     1     1     4     1
 4  21.4     6  258    110  3.08  3.22  19.4     1     0     3     1
 5  18.7     8  360    175  3.15  3.44  17.0     0     0     3     2
 6  18.1     6  225    105  2.76  3.46  20.2     1     0     3     1
 7  14.3     8  360    245  3.21  3.57  15.8     0     0     3     4
 8  24.4     4  147.    62  3.69  3.19  20       1     0     4     2
 9  22.8     4  141.    95  3.92  3.15  22.9     1     0     4     2
10  19.2     6  168.   123  3.92  3.44  18.3     1     0     4     4
# ℹ 22 more rows
> read_stata(tmp)
# A tibble: 32 × 11
     mpg   cyl  disp    hp  drat    wt  qsec    vs    am  gear  carb
   <dbl> <dbl> <dbl> <dbl> <dbl> <dbl> <dbl> <dbl> <dbl> <dbl> <dbl>
 1  21       6  160    110  3.9   2.62  16.5     0     1     4     4
 2  21       6  160    110  3.9   2.88  17.0     0     1     4     4
 3  22.8     4  108     93  3.85  2.32  18.6     1     1     4     1
 4  21.4     6  258    110  3.08  3.22  19.4     1     0     3     1
 5  18.7     8  360    175  3.15  3.44  17.0     0     0     3     2
 6  18.1     6  225    105  2.76  3.46  20.2     1     0     3     1
 7  14.3     8  360    245  3.21  3.57  15.8     0     0     3     4
 8  24.4     4  147.    62  3.69  3.19  20       1     0     4     2
 9  22.8     4  141.    95  3.92  3.15  22.9     1     0     4     2
10  19.2     6  168.   123  3.92  3.44  18.3     1     0     4     4
# ℹ 22 more rows
…
> cleanEx()
> nameEx("read_sas")
> ### * read_sas
> 
> flush(stderr()); flush(stdout())
> 
> ### Name: read_sas
> ### Title: Read SAS files
> ### Aliases: read_sas
> 
> ### ** Examples
> 
> path <- system.file("examples", "iris.sas7bdat", package = "haven")
> read_sas(path)
# A tibble: 150 × 5
   Sepal_Length Sepal_Width Petal_Length Petal_Width Species
          <dbl>       <dbl>        <dbl>       <dbl> <chr>  
 1          5.1         3.5          1.4         0.2 setosa 
 2          4.9         3            1.4         0.2 setosa 
 3          4.7         3.2          1.3         0.2 setosa 
 4          4.6         3.1          1.5         0.2 setosa 
 5          5           3.6          1.4         0.2 setosa 
 6          5.4         3.9          1.7         0.4 setosa 
 7          4.6         3.4          1.4         0.3 setosa 
 8          5           3.4          1.5         0.2 setosa 
 9          4.4         2.9          1.4         0.2 setosa 
10          4.9         3.1          1.5         0.1 setosa 
# ℹ 140 more rows
…
> cleanEx()
> nameEx("read_spss")
> ### * read_spss
> 
> flush(stderr()); flush(stdout())
> 
> ### Name: read_spss
> ### Title: Read and write SPSS files
> ### Aliases: read_spss read_sav read_por write_sav
> 
> ### ** Examples
> 
> path <- system.file("examples", "iris.sav", package = "haven")
> read_sav(path)
# A tibble: 150 × 5
   Sepal.Length Sepal.Width Petal.Length Petal.Width Species   
          <dbl>       <dbl>        <dbl>       <dbl> <dbl+lbl> 
 1          5.1         3.5          1.4         0.2 1 [setosa]
 2          4.9         3            1.4         0.2 1 [setosa]
 3          4.7         3.2          1.3         0.2 1 [setosa]
 4          4.6         3.1          1.5         0.2 1 [setosa]
 5          5           3.6          1.4         0.2 1 [setosa]
 6          5.4         3.9          1.7         0.4 1 [setosa]
 7          4.6         3.4          1.4         0.3 1 [setosa]
 8          5           3.4          1.5         0.2 1 [setosa]
 9          4.4         2.9          1.4         0.2 1 [setosa]
10          4.9         3.1          1.5         0.1 1 [setosa]
# ℹ 140 more rows
> 
> tmp <- tempfile(fileext = ".sav")
> write_sav(mtcars, tmp)
> read_sav(tmp)
# A tibble: 32 × 11
     mpg   cyl  disp    hp  drat    wt  qsec    vs    am  gear  carb
   <dbl> <dbl> <dbl> <dbl> <dbl> <dbl> <dbl> <dbl> <dbl> <dbl> <dbl>
 1  21       6  160    110  3.9   2.62  16.5     0     1     4     4
 2  21       6  160    110  3.9   2.88  17.0     0     1     4     4
 3  22.8     4  108     93  3.85  2.32  18.6     1     1     4     1
 4  21.4     6  258    110  3.08  3.22  19.4     1     0     3     1
 5  18.7     8  360    175  3.15  3.44  17.0     0     0     3     2
 6  18.1     6  225    105  2.76  3.46  20.2     1     0     3     1
 7  14.3     8  360    245  3.21  3.57  15.8     0     0     3     4
 8  24.4     4  147.    62  3.69  3.19  20       1     0     4     2
 9  22.8     4  141.    95  3.92  3.15  22.9     1     0     4     2
10  19.2     6  168.   123  3.92  3.44  18.3     1     0     4     4
# ℹ 22 more rows
…
> nameEx("read_xpt")
> ### * read_xpt
> 
> flush(stderr()); flush(stdout())
> 
> ### Name: read_xpt
> ### Title: Read and write SAS transport files
> ### Aliases: read_xpt write_xpt
> 
> ### ** Examples
> 
> tmp <- tempfile(fileext = ".xpt")
> write_xpt(mtcars, tmp)
> read_xpt(tmp)
# A tibble: 32 × 11
     mpg   cyl  disp    hp  drat    wt  qsec    vs    am  gear  carb
   <dbl> <dbl> <dbl> <dbl> <dbl> <dbl> <dbl> <dbl> <dbl> <dbl> <dbl>
 1  21       6  160    110  3.9   2.62  16.5     0     1     4     4
 2  21       6  160    110  3.9   2.88  17.0     0     1     4     4
 3  22.8     4  108     93  3.85  2.32  18.6     1     1     4     1
 4  21.4     6  258    110  3.08  3.22  19.4     1     0     3     1
 5  18.7     8  360    175  3.15  3.44  17.0     0     0     3     2
 6  18.1     6  225    105  2.76  3.46  20.2     1     0     3     1
 7  14.3     8  360    245  3.21  3.57  15.8     0     0     3     4
 8  24.4     4  147.    62  3.69  3.19  20       1     0     4     2
 9  22.8     4  141.    95  3.92  3.15  22.9     1     0     4     2
10  19.2     6  168.   123  3.92  3.44  18.3     1     0     4     4
# ℹ 22 more rows
…
