…
> cleanEx()
> nameEx("airports")
> ### * airports
> 
> flush(stderr()); flush(stdout())
> 
> ### Name: airports
> ### Title: Airport metadata
> ### Aliases: airports
> ### Keywords: datasets
> 
> ### ** Examples
> 
> airports
# A tibble: 1,458 × 8
   faa   name                             lat    lon   alt    tz dst   tzone    
   <chr> <chr>                          <dbl>  <dbl> <dbl> <dbl> <chr> <chr>    
 1 04G   Lansdowne Airport               41.1  -80.6  1044    -5 A     America/…
 2 06A   Moton Field Municipal Airport   32.5  -85.7   264    -6 A     America/…
 3 06C   Schaumburg Regional             42.0  -88.1   801    -6 A     America/…
 4 06N   Randall Airport                 41.4  -74.4   523    -5 A     America/…
 5 09J   Jekyll Island Airport           31.1  -81.4    11    -5 A     America/…
 6 0A9   Elizabethton Municipal Airport  36.4  -82.2  1593    -5 A     America/…
 7 0G6   Williams County Airport         41.5  -84.5   730    -5 A     America/…
 8 0G7   Finger Lakes Regional Airport   42.9  -76.8   492    -5 A     America/…
 9 0P2   Shoestring Aviation Airfield    39.8  -76.6  1000    -5 U     America/…
10 0S9   Jefferson County Intl           48.1 -123.    108    -8 A     America/…
# ℹ 1,448 more rows
…
> nameEx("planes")
> ### * planes
> 
> flush(stderr()); flush(stdout())
> 
> ### Name: planes
> ### Title: Plane metadata.
> ### Aliases: planes
> ### Keywords: datasets
> 
> ### ** Examples
> 
> planes
# A tibble: 3,322 × 9
   tailnum  year type              manufacturer model engines seats speed engine
   <chr>   <int> <chr>             <chr>        <chr>   <int> <int> <int> <chr> 
 1 N10156   2004 Fixed wing multi… EMBRAER      EMB-…       2    55    NA Turbo…
 2 N102UW   1998 Fixed wing multi… AIRBUS INDU… A320…       2   182    NA Turbo…
 3 N103US   1999 Fixed wing multi… AIRBUS INDU… A320…       2   182    NA Turbo…
 4 N104UW   1999 Fixed wing multi… AIRBUS INDU… A320…       2   182    NA Turbo…
 5 N10575   2002 Fixed wing multi… EMBRAER      EMB-…       2    55    NA Turbo…
 6 N105UW   1999 Fixed wing multi… AIRBUS INDU… A320…       2   182    NA Turbo…
 7 N107US   1999 Fixed wing multi… AIRBUS INDU… A320…       2   182    NA Turbo…
 8 N108UW   1999 Fixed wing multi… AIRBUS INDU… A320…       2   182    NA Turbo…
 9 N109UW   1999 Fixed wing multi… AIRBUS INDU… A320…       2   182    NA Turbo…
10 N110UW   1999 Fixed wing multi… AIRBUS INDU… A320…       2   182    NA Turbo…
# ℹ 3,312 more rows
…
Attaching package: ‘dplyr’

The following objects are masked from ‘package:stats’:

    filter, lag

The following objects are masked from ‘package:base’:

    intersect, setdiff, setequal, union

# A tibble: 52,606 × 19
    year month   day dep_time sched_dep_time dep_delay arr_time sched_arr_time
   <int> <int> <int>    <int>          <int>     <dbl>    <int>          <int>
 1  2013     1     1      558            600        -2      753            745
 2  2013     1     1      559            600        -1      941            910
 3  2013     1     1      600            600         0      837            825
 4  2013     1     1      602            605        -3      821            805
 5  2013     1     1      608            600         8      807            735
 6  2013     1     1      611            600        11      945            931
 7  2013     1     1      623            610        13      920            915
 8  2013     1     1      624            630        -6      840            830
 9  2013     1     1      628            630        -2     1137           1140
10  2013     1     1      629            630        -1      824            810
# ℹ 52,596 more rows
# ℹ 11 more variables: arr_delay <dbl>, carrier <chr>, flight <int>,
#   tailnum <chr>, origin <chr>, dest <chr>, air_time <dbl>, distance <dbl>,
#   hour <dbl>, minute <dbl>, time_hour <dttm>
…
