…
> set.seed(27)
> centers <- tibble(cluster = factor(1:3), num_points = c(100, 150, 50), 
+     x1 = c(5, 0, -3), x2 = c(-1, 1, -2))
> points <- centers %>% mutate(x1 = map2(num_points, x1, rnorm), x2 = map2(num_points, 
+     x2, rnorm)) %>% select(-num_points, -cluster) %>% unnest(c(x1, x2))
> m <- Mclust(points)
> tidy(m)
# A tibble: 3 × 6
  component  size proportion variance mean.x1 mean.x2
      <int> <int>      <dbl>    <dbl>   <dbl>   <dbl>
1         1   101      0.335     1.12  5.01     -1.04
2         2   150      0.503     1.12  0.0594    1.00
3         3    49      0.161     1.12 -3.20     -2.06
> augment(m, points)
# A tibble: 300 × 4
      x1     x2 .class .uncertainty
   <dbl>  <dbl> <fct>         <dbl>
 1  6.91 -2.74  1          3.98e-11
 2  6.14 -2.45  1          1.99e- 9
 3  4.24 -0.946 1          1.47e- 4
 4  3.54  0.287 1          2.94e- 2
 5  3.91  0.408 1          7.48e- 3
 6  5.30 -1.58  1          4.22e- 7
 7  5.01 -1.77  1          1.06e- 6
 8  6.16 -1.68  1          7.64e- 9
 9  7.13 -2.17  1          4.16e-11
10  5.24 -2.42  1          1.16e- 7
# ℹ 290 more rows
…
Loading required package: betareg
> set.seed(12345)
> n <- 1000
> x <- rnorm(n)
> y <- rbeta(n, shape1 = plogis(1 + 0.5 * x), shape2 = (abs(0.2 * x)))
> y <- (y * (n - 1) + 0.5)/n
> d <- data.frame(y, x)
> mod_betamfx <- betamfx(y ~ x | x, data = d)
> tidy(mod_betamfx, conf.int = TRUE)
# A tibble: 1 × 8
  term  atmean estimate std.error statistic p.value conf.low conf.high
  <chr> <lgl>     <dbl>     <dbl>     <dbl>   <dbl>    <dbl>     <dbl>
1 x     TRUE     0.0226   0.00801      2.82 0.00483  0.00686    0.0383
> augment(mod_betamfx)
# A tibble: 1,000 × 4
       y      x .fitted   .cooksd
   <dbl>  <dbl>   <dbl>     <dbl>
 1 0.951  0.586   0.809 0.000189 
 2 0.714  0.709   0.811 0.0000993
 3 0.999 -0.109   0.793 0.000273 
 4 0.998 -0.453   0.785 0.000334 
 5 0.999  0.606   0.809 0.000342 
 6 0.562 -1.82    0.751 0.000878 
 7 0.999  0.630   0.810 0.000348 
 8 0.999 -0.276   0.789 0.000294 
 9 0.744 -0.284   0.789 0.0000134
10 0.999 -0.919   0.774 0.000551 
# ℹ 990 more rows
…
   <chr>     <chr>        <dbl>     <dbl>     <dbl>     <dbl>    <dbl>     <dbl>
 1 mean      (Interce…  -6.16     1.82e-1    -33.8  3.44e-250 -6.63e+0   -5.69  
 2 mean      batch1      1.73     1.01e-1     17.1  2.59e- 65  1.47e+0    1.99  
 3 mean      batch2      1.32     1.18e-1     11.2  3.34e- 29  1.02e+0    1.63  
 4 mean      batch3      1.57     1.16e-1     13.5  8.81e- 42  1.27e+0    1.87  
 5 mean      batch4      1.06     1.02e-1     10.4  4.06e- 25  7.96e-1    1.32  
 6 mean      batch5      1.13     1.04e-1     11.0  6.52e- 28  8.67e-1    1.40  
 7 mean      batch6      1.04     1.06e-1      9.81 1.03e- 22  7.67e-1    1.31  
 8 mean      batch7      0.544    1.09e-1      4.98 6.29e-  7  2.63e-1    0.825 
 9 mean      batch8      0.496    1.09e-1      4.55 5.30e-  6  2.15e-1    0.776 
10 mean      batch9      0.386    1.19e-1      3.25 1.14e-  3  8.03e-2    0.691 
11 mean      temp        0.0110   4.13e-4     26.6  1.26e-155  9.90e-3    0.0120
12 precision (phi)     440.       1.10e+2      4.00 6.29e-  5  1.57e+2  724.    
> augment(mod)
# A tibble: 32 × 6
   yield batch  temp .fitted  .resid   .cooksd
   <dbl> <fct> <dbl>   <dbl>   <dbl>     <dbl>
 1 0.122 1       205  0.101   1.41   0.0791   
 2 0.223 1       275  0.195   1.44   0.0917   
 3 0.347 1       345  0.343   0.170  0.00155  
 4 0.457 1       407  0.508  -2.14   0.606    
 5 0.08  2       218  0.0797  0.0712 0.0000168
 6 0.131 2       273  0.137  -0.318  0.00731  
 7 0.266 2       347  0.263   0.169  0.00523  
 8 0.074 3       212  0.0943 -1.52   0.0805   
 9 0.182 3       272  0.167   0.831  0.0441   
10 0.304 3       340  0.298   0.304  0.0170   
# ℹ 22 more rows
…
  <chr>          <dbl>     <dbl>     <dbl>    <dbl>    <dbl>     <dbl> <chr>    
1 1|2            0.244     0.545    -2.59  9.66e- 3   0.0837     0.710 intercept
2 2|3            3.14      0.510     2.24  2.48e- 2   1.16       8.52  intercept
3 3|4           29.3       0.638     5.29  1.21e- 7   8.38     102.    intercept
4 4|5          140.        0.751     6.58  4.66e-11  32.1      610.    intercept
5 tempwarm      10.2       0.701     3.31  9.28e- 4   2.58      40.2   location 
6 contactyes     3.85      0.660     2.04  4.13e- 2   1.05      14.0   location 
7 tempwarm:c…    1.43      0.924     0.389 6.97e- 1   0.234      8.76  location 
> glance(fit)
# A tibble: 1 × 6
    edf   AIC   BIC logLik   df.residual  nobs
  <int> <dbl> <dbl> <logLik>       <dbl> <dbl>
1     7  187.  203. -86.4162          65    72
> augment(fit, type.predict = "prob")
# A tibble: 72 × 4
   rating temp  contact .fitted
   <ord>  <fct> <fct>     <dbl>
 1 2      cold  no       0.562 
 2 3      cold  no       0.209 
 3 3      cold  yes      0.435 
 4 4      cold  yes      0.0894
 5 4      warm  no       0.190 
 6 4      warm  no       0.190 
 7 5      warm  yes      0.286 
 8 5      warm  yes      0.286 
 9 1      cold  no       0.196 
10 2      cold  no       0.562 
# ℹ 62 more rows
> augment(fit, type.predict = "class")
# A tibble: 72 × 4
   rating temp  contact .fitted
   <ord>  <fct> <fct>   <fct>  
 1 2      cold  no      2      
 2 3      cold  no      2      
 3 3      cold  yes     3      
 4 4      cold  yes     3      
 5 4      warm  no      3      
 6 4      warm  no      3      
 7 5      warm  yes     4      
 8 5      warm  yes     4      
 9 1      cold  no      2      
10 2      cold  no      2      
# ℹ 62 more rows
…
1 b     1       -1.50      0.155     -9.67 2.01e-22    -1.81    -1.20 
2 b     2       -0.843     0.139     -6.06 1.35e- 9    -1.12    -0.571
3 b     3       -2.16      0.138    -15.7  1.65e-55    -2.43    -1.89 
4 b     4       -1.45      0.169     -8.62 3.41e-18    -1.78    -1.12 
5 e     1      252.       13.8       18.2  1.16e-74   225.     279.   
6 e     2      378.       39.4        9.61 3.53e-22   301.     456.   
7 e     3      120.        5.91      20.3  1.14e-91   108.     131.   
8 e     4       88.8       8.62      10.3  3.28e-25    71.9    106.   
> glance(mod)
# A tibble: 1 × 4
    AIC   BIC logLik    df.residual
  <dbl> <dbl> <logLik>        <int>
1  768.  778. -376.2099          17
> augment(mod, selenium)
# A tibble: 25 × 7
    type  conc total  dead .fitted  .resid    .cooksd
   <dbl> <dbl> <dbl> <dbl>   <dbl>   <dbl>      <dbl>
 1     1     0   151     3   0      0.0199 0         
 2     1   100   146    40   0.199  0.0748 0.0000909 
 3     1   200   116    31   0.414 -0.146  0.000104  
 4     1   300   159    85   0.565 -0.0302 0.00000516
 5     1   400   150   102   0.667  0.0133 0.00000220
 6     1   500   140   112   0.737  0.0633 0.0000720 
 7     2     0   141     2   0      0.0142 0         
 8     2   100   153    30   0.246 -0.0495 0.000168  
 9     2   200   142    59   0.369  0.0468 0.0000347 
10     2   300   139    82   0.451  0.139  0.0000430 
# ℹ 15 more rows
…
3    12     149 12.6   74     5   3
4    18     313 11.5   62     5   4
5    NA      NA 14.3   56     5   5
6    28      NA 14.9   66     5   6
> est0 <- felm(Ozone ~ Temp + Wind + Solar.R, airquality)
> tidy(est0)
# A tibble: 4 × 5
  term        estimate std.error statistic       p.value
  <chr>          <dbl>     <dbl>     <dbl>         <dbl>
1 (Intercept) -64.3      23.1        -2.79 0.00623      
2 Temp          1.65      0.254       6.52 0.00000000242
3 Wind         -3.33      0.654      -5.09 0.00000152   
4 Solar.R       0.0598    0.0232      2.58 0.0112       
> augment(est0)
# A tibble: 111 × 7
   .rownames Ozone  Temp  Wind Solar.R .fitted  .resid
   <chr>     <int> <int> <dbl>   <int>   <dbl>   <dbl>
 1 1            41    67   7.4     190   33.0    7.95 
 2 2            36    72   8       118   35.0    1.00 
 3 3            12    74  12.6     149   24.8  -12.8  
 4 4            18    62  11.5     313   18.5   -0.475
 5 7            23    65   8.6     299   32.3   -9.26 
 6 8            19    59  13.8      99   -6.95  25.9  
 7 9             8    61  20.1      19  -29.4   37.4  
 8 12           16    69   9.7     256   32.6  -16.6  
 9 13           11    66   9.2     290   31.4  -20.4  
10 14           14    68  10.9     274   28.1  -14.1  
# ℹ 101 more rows
…
3 Solar.R   0.0522    0.0237      2.21 0.0296     
> tidy(est1, fe = TRUE)
# A tibble: 8 × 7
  term    estimate std.error statistic     p.value     N  comp
  <chr>      <dbl>     <dbl>     <dbl>       <dbl> <int> <dbl>
1 Temp      1.88      0.341       5.50 0.000000274    NA    NA
2 Wind     -3.11      0.660      -4.71 0.00000778     NA    NA
3 Solar.R   0.0522    0.0237      2.21 0.0296         NA    NA
4 Month.5 -74.2       4.23      -17.5  2.00           24     1
5 Month.6 -89.0       6.91      -12.9  2.00            9     1
6 Month.7 -83.0       4.06      -20.4  2              26     1
7 Month.8 -78.4       4.32      -18.2  2.00           23     1
8 Month.9 -90.2       3.85      -23.4  2              29     1
> augment(est1)
# A tibble: 111 × 8
   .rownames Ozone  Temp  Wind Solar.R Month .fitted .resid
   <chr>     <int> <int> <dbl>   <int> <int>   <dbl>  <dbl>
 1 1            41    67   7.4     190     5   38.3    2.69
 2 2            36    72   8       118     5   42.1   -6.07
 3 3            12    74  12.6     149     5   33.1  -21.1 
 4 4            18    62  11.5     313     5   22.6   -4.62
 5 7            23    65   8.6     299     5   36.5  -13.5 
 6 8            19    59  13.8      99     5   -1.33  20.3 
 7 9             8    61  20.1      19     5  -21.3   29.3 
 8 12           16    69   9.7     256     5   38.4  -22.4 
 9 13           11    66   9.2     290     5   36.1  -25.1 
10 14           14    68  10.9     274     5   33.7  -19.7 
# ℹ 101 more rows
…
> gravity <- feols(log(Euros) ~ log(dist_km) | Origin + Destination + Product + 
+     Year, trade)
> tidy(gravity)
# A tibble: 1 × 5
  term         estimate std.error statistic       p.value
  <chr>           <dbl>     <dbl>     <dbl>         <dbl>
1 log(dist_km)    -2.17     0.154     -14.1 0.00000000119
> glance(gravity)
# A tibble: 1 × 9
  r.squared adj.r.squared within.r.squared pseudo.r.squared sigma  nobs     AIC
      <dbl>         <dbl>            <dbl>            <dbl> <dbl> <int>   <dbl>
1     0.706         0.705            0.219               NA  1.74 38325 151481.
# ℹ 2 more variables: BIC <dbl>, logLik <dbl>
> augment(gravity, trade)
# A tibble: 38,325 × 9
   .rownames Destination Origin Product  Year dist_km    Euros .fitted  .resid
   <chr>     <fct>       <fct>    <int> <dbl>   <dbl>    <dbl>   <dbl>   <dbl>
 1 1         LU          BE           1  2007    140.  2966697    14.1  0.812 
 2 2         BE          LU           1  2007    140.  6755030    13.0  2.75  
 3 3         LU          BE           2  2007    140. 57078782    16.9  0.924 
 4 4         BE          LU           2  2007    140.  7117406    15.8 -0.0470
 5 5         LU          BE           3  2007    140. 17379821    16.3  0.378 
 6 6         BE          LU           3  2007    140.  2622254    15.2 -0.402 
 7 7         LU          BE           4  2007    140. 64867588    17.4  0.595 
 8 8         BE          LU           4  2007    140. 10731757    16.3 -0.0937
 9 9         LU          BE           5  2007    140.   330702    14.1 -1.37  
10 10        BE          LU           5  2007    140.     7706    13.0 -4.02  
# ℹ 38,315 more rows
…
1 s(hp)  2.36   3.02      6.34 0.00218
> tidy(g, parametric = TRUE)
# A tibble: 3 × 5
  term        estimate std.error statistic p.value
  <chr>          <dbl>     <dbl>     <dbl>   <dbl>
1 (Intercept)  16.7        9.83      1.70  0.101  
2 am            4.37       1.56      2.81  0.00918
3 qsec          0.0904     0.525     0.172 0.865  
> glance(g)
# A tibble: 1 × 9
     df logLik   AIC   BIC deviance df.residual  nobs adj.r.squared  npar
  <dbl>  <dbl> <dbl> <dbl>    <dbl>       <dbl> <int>         <dbl> <int>
1  5.36  -74.4  162.  171.     196.        26.6    32         0.797    12
> augment(g)
# A tibble: 32 × 11
   .rownames          mpg    am  qsec    hp .fitted .se.fit .resid   .hat .sigma
   <chr>            <dbl> <dbl> <dbl> <dbl>   <dbl>   <dbl>  <dbl>  <dbl> <lgl> 
 1 Mazda RX4         21       1  16.5   110    24.3   1.03  -3.25  0.145  NA    
 2 Mazda RX4 Wag     21       1  17.0   110    24.3   0.925 -3.30  0.116  NA    
 3 Datsun 710        22.8     1  18.6    93    26.0   0.894 -3.22  0.109  NA    
 4 Hornet 4 Drive    21.4     0  19.4   110    20.2   0.827  1.25  0.0930 NA    
 5 Hornet Sportabo…  18.7     0  17.0   175    15.7   0.815  3.02  0.0902 NA    
 6 Valiant           18.1     0  20.2   105    20.7   0.914 -2.56  0.113  NA    
 7 Duster 360        14.3     0  15.8   245    12.7   1.11   1.63  0.167  NA    
 8 Merc 240D         24.4     0  20      62    25.0   1.45  -0.618 0.287  NA    
 9 Merc 230          22.8     0  22.9    95    21.8   1.81   0.959 0.446  NA    
10 Merc 280          19.2     0  18.3   123    19.0   0.864  0.211 0.102  NA    
# ℹ 22 more rows
# ℹ 1 more variable: .cooksd <dbl>
…
1 (Intercept)  4.61e+ 0  4.45e- 2    104.   3.74e-56
2 income      -5.71e-10  2.33e-10     -2.44 1.84e- 2
> tidy(ivr, conf.int = TRUE)
# A tibble: 2 × 7
  term         estimate std.error statistic  p.value conf.low conf.high
  <chr>           <dbl>     <dbl>     <dbl>    <dbl>    <dbl>     <dbl>
1 (Intercept)  4.61e+ 0  4.45e- 2    104.   3.74e-56  4.52e+0  4.70e+ 0
2 income      -5.71e-10  2.33e-10     -2.44 1.84e- 2 -1.03e-9 -1.13e-10
> tidy(ivr, conf.int = TRUE, instruments = TRUE)
# A tibble: 1 × 5
  term   num.df den.df statistic  p.value
  <chr>   <dbl>  <dbl>     <dbl>    <dbl>
1 income      1     46     3329. 1.46e-44
> augment(ivr)
# A tibble: 48 × 6
   .rownames `log(packs)`    income population .fitted  .resid
   <chr>            <dbl>     <dbl>      <dbl>   <dbl>   <dbl>
 1 49                4.62  83903280    4262731    4.56  0.0522
 2 50                4.71  45995496    2480121    4.59  0.124 
 3 51                4.28  88870496    4306908    4.56 -0.285 
 4 52                4.04 771470144   31493524    4.17 -0.131 
 5 53                4.41  92946544    3738061    4.56 -0.145 
 6 54                4.38 104315120    3265293    4.55 -0.177 
 7 55                4.82  18237436     718265    4.60  0.223 
 8 56                4.53 333525344   14185403    4.42  0.112 
 9 57                4.58 159800448    7188538    4.52  0.0591
10 58                4.53  60170928    2840860    4.58 -0.0512
# ℹ 38 more rows
> augment(ivr, data = CigarettesSW)
# A tibble: 96 × 11
   state year    cpi population packs   income   tax price  taxs .fitted  .resid
   <fct> <fct> <dbl>      <dbl> <dbl>    <dbl> <dbl> <dbl> <dbl>   <dbl>   <dbl>
 1 AL    1985   1.08    3973000  116.   4.60e7  32.5 102.   33.3    4.56  0.0522
 2 AR    1985   1.08    2327000  129.   2.62e7  37   101.   37      4.59  0.124 
 3 AZ    1985   1.08    3184000  105.   4.40e7  31   109.   36.2    4.56 -0.285 
 4 CA    1985   1.08   26444000  100.   4.47e8  26   108.   32.1    4.17 -0.131 
 5 CO    1985   1.08    3209000  113.   4.95e7  31    94.3  31      4.56 -0.145 
 6 CT    1985   1.08    3201000  109.   6.01e7  42   128.   51.5    4.55 -0.177 
 7 DE    1985   1.08     618000  144.   9.93e6  30   102.   30      4.60  0.223 
 8 FL    1985   1.08   11352000  122.   1.67e8  37   115.   42.5    4.42  0.112 
 9 GA    1985   1.08    5963000  127.   7.84e7  28    97.0  28.8    4.52  0.0591
10 IA    1985   1.08    2830000  114.   3.79e7  34   102.   37.9    4.58 -0.0512
# ℹ 86 more rows
> augment(ivr, newdata = CigarettesSW)
# A tibble: 96 × 10
   state year    cpi population packs    income   tax price  taxs .fitted
   <fct> <fct> <dbl>      <dbl> <dbl>     <dbl> <dbl> <dbl> <dbl>   <dbl>
 1 AL    1985   1.08    3973000  116.  46014968  32.5 102.   33.3    4.59
 2 AR    1985   1.08    2327000  129.  26210736  37   101.   37      4.60
 3 AZ    1985   1.08    3184000  105.  43956936  31   109.   36.2    4.59
 4 CA    1985   1.08   26444000  100. 447102816  26   108.   32.1    4.36
 5 CO    1985   1.08    3209000  113.  49466672  31    94.3  31      4.58
 6 CT    1985   1.08    3201000  109.  60063368  42   128.   51.5    4.58
 7 DE    1985   1.08     618000  144.   9927301  30   102.   30      4.61
 8 FL    1985   1.08   11352000  122. 166919248  37   115.   42.5    4.52
 9 GA    1985   1.08    5963000  127.  78364336  28    97.0  28.8    4.57
10 IA    1985   1.08    2830000  114.  37902896  34   102.   37.9    4.59
# ℹ 86 more rows
…
> s <- summary(mod)
> tidy(s, conf.int = TRUE)
# A tibble: 3 × 7
  term        estimate std.error statistic  p.value conf.low conf.high
  <chr>          <dbl>     <dbl>     <dbl>    <dbl>    <dbl>     <dbl>
1 (Intercept)   19.7       5.25       3.76 7.65e- 4    9.00      30.5 
2 wt            -5.05      0.484    -10.4  2.52e-11   -6.04      -4.06
3 qsec           0.929     0.265      3.51 1.50e- 3    0.387      1.47
> glance(s)
# A tibble: 1 × 8
  r.squared adj.r.squared sigma statistic  p.value    df df.residual  nobs
      <dbl>         <dbl> <dbl>     <dbl>    <dbl> <dbl>       <int> <dbl>
1     0.826         0.814  2.60      69.0 9.39e-12     2          29    32
> augment(mod)
# A tibble: 32 × 10
   .rownames    mpg    wt  qsec .fitted  .resid   .hat .sigma .cooksd .std.resid
   <chr>      <dbl> <dbl> <dbl>   <dbl>   <dbl>  <dbl>  <dbl>   <dbl>      <dbl>
 1 Mazda RX4   21    2.62  16.5    21.8 -0.815  0.0693   2.64 2.63e-3    -0.325 
 2 Mazda RX4…  21    2.88  17.0    21.0 -0.0482 0.0444   2.64 5.59e-6    -0.0190
 3 Datsun 710  22.8  2.32  18.6    25.3 -2.53   0.0607   2.60 2.17e-2    -1.00  
 4 Hornet 4 …  21.4  3.22  19.4    21.6 -0.181  0.0576   2.64 1.05e-4    -0.0716
 5 Hornet Sp…  18.7  3.44  17.0    18.2  0.504  0.0389   2.64 5.29e-4     0.198 
 6 Valiant     18.1  3.46  20.2    21.1 -2.97   0.0957   2.58 5.10e-2    -1.20  
 7 Duster 360  14.3  3.57  15.8    16.4 -2.14   0.0729   2.61 1.93e-2    -0.857 
 8 Merc 240D   24.4  3.19  20      22.2  2.17   0.0791   2.61 2.18e-2     0.872 
 9 Merc 230    22.8  3.15  22.9    25.1 -2.32   0.295    2.59 1.59e-1    -1.07  
10 Merc 280    19.2  3.44  18.3    19.4 -0.185  0.0358   2.64 6.55e-5    -0.0728
# ℹ 22 more rows
> augment(mod, mtcars, interval = "confidence")
# A tibble: 32 × 20
   .rownames     mpg   cyl  disp    hp  drat    wt  qsec    vs    am  gear  carb
   <chr>       <dbl> <dbl> <dbl> <dbl> <dbl> <dbl> <dbl> <dbl> <dbl> <dbl> <dbl>
 1 Mazda RX4    21       6  160    110  3.9   2.62  16.5     0     1     4     4
 2 Mazda RX4 …  21       6  160    110  3.9   2.88  17.0     0     1     4     4
 3 Datsun 710   22.8     4  108     93  3.85  2.32  18.6     1     1     4     1
 4 Hornet 4 D…  21.4     6  258    110  3.08  3.22  19.4     1     0     3     1
 5 Hornet Spo…  18.7     8  360    175  3.15  3.44  17.0     0     0     3     2
 6 Valiant      18.1     6  225    105  2.76  3.46  20.2     1     0     3     1
 7 Duster 360   14.3     8  360    245  3.21  3.57  15.8     0     0     3     4
 8 Merc 240D    24.4     4  147.    62  3.69  3.19  20       1     0     4     2
 9 Merc 230     22.8     4  141.    95  3.92  3.15  22.9     1     0     4     2
10 Merc 280     19.2     6  168.   123  3.92  3.44  18.3     1     0     4     4
# ℹ 22 more rows
# ℹ 8 more variables: .fitted <dbl>, .lower <dbl>, .upper <dbl>, .resid <dbl>,
#   .hat <dbl>, .sigma <dbl>, .cooksd <dbl>, .std.resid <dbl>
…
