…
<dbl>
    1
    2
    3
> pillar(factor(letters[1:3]), title = "letters")
<pillar>
letters
<fct>  
a      
b      
c      
> tbl_format_setup(tibble::as_tibble(mtcars), width = 60)
<pillar_tbl_format_setup>
<tbl_format_header(setup)>
# A tibble: 32 × 11
<tbl_format_body(setup)>
     mpg   cyl  disp    hp  drat    wt  qsec    vs    am
   <dbl> <dbl> <dbl> <dbl> <dbl> <dbl> <dbl> <dbl> <dbl>
 1  21       6  160    110  3.9   2.62  16.5     0     1
 2  21       6  160    110  3.9   2.88  17.0     0     1
 3  22.8     4  108     93  3.85  2.32  18.6     1     1
 4  21.4     6  258    110  3.08  3.22  19.4     1     0
 5  18.7     8  360    175  3.15  3.44  17.0     0     0
 6  18.1     6  225    105  2.76  3.46  20.2     1     0
 7  14.3     8  360    245  3.21  3.57  15.8     0     0
 8  24.4     4  147.    62  3.69  3.19  20       1     0
 9  22.8     4  141.    95  3.92  3.15  22.9     1     0
10  19.2     6  168.   123  3.92  3.44  18.3     1     0
<tbl_format_footer(setup)>
# ℹ 22 more rows
# ℹ 2 more variables: gear <dbl>, carb <dbl>
…
# A tibble: 8 × 1
      x
  <dbl>
1  1.23
2 NA   
3  5   
4  6   
5  7   
6  8   
7  9   
8 10   
> old <- options(pillar.sigfig = 6, pillar.print_max = 5, pillar.print_min = 5, 
+     pillar.advice = FALSE)
> df
# A tibble: 8 × 1
         x
     <dbl>
1  1.23457
2 NA      
3  5      
4  6      
5  7      
# ℹ 3 more rows
…
> ### Title: Set up formatting
> ### Aliases: tbl_format_setup tbl_format_setup.tbl
> 
> ### ** Examples
> 
> ## Don't show: 
> if (rlang::is_installed(c("palmerpenguins", "tibble"))) withAutoprint({ # examplesIf
+ ## End(Don't show)
+ tbl_format_setup(palmerpenguins::penguins)
+ ## Don't show: 
+ }) # examplesIf
> tbl_format_setup(palmerpenguins::penguins)
<pillar_tbl_format_setup>
<tbl_format_header(setup)>
# A tibble: 344 × 8
<tbl_format_body(setup)>
   species island    bill_length_mm bill_depth_mm flipper_length_mm body_mass_g
   <fct>   <fct>              <dbl>         <dbl>             <int>       <int>
 1 Adelie  Torgersen           39.1          18.7               181        3750
 2 Adelie  Torgersen           39.5          17.4               186        3800
 3 Adelie  Torgersen           40.3          18                 195        3250
 4 Adelie  Torgersen           NA            NA                  NA          NA
 5 Adelie  Torgersen           36.7          19.3               193        3450
 6 Adelie  Torgersen           39.3          20.6               190        3650
 7 Adelie  Torgersen           38.9          17.8               181        3625
 8 Adelie  Torgersen           39.2          19.6               195        4675
 9 Adelie  Torgersen           34.1          18.1               193        3475
10 Adelie  Torgersen           42            20.2               190        4250
<tbl_format_footer(setup)>
# ℹ 334 more rows
# ℹ 2 more variables: sex <fct>, year <int>
…
