…
> ### Name: add_residuals
> ### Title: Add residuals to a data frame
> ### Aliases: add_residuals spread_residuals gather_residuals
> 
> ### ** Examples
> 
> df <- tibble::tibble(
+   x = sort(runif(100)),
+   y = 5 * x + 0.5 * x ^ 2 + 3 + rnorm(length(x))
+ )
> plot(df)
> 
> m1 <- lm(y ~ x, data = df)
> df %>% add_residuals(m1)
# A tibble: 100 × 3
        x     y   resid
    <dbl> <dbl>   <dbl>
 1 0.0134  3.47  0.129 
 2 0.0233  2.50 -0.878 
 3 0.0589  3.64  0.0844
 4 0.0618  2.18 -1.39  
 5 0.0707  4.79  1.18  
 6 0.0842  5.41  1.73  
 7 0.0995  3.14 -0.611 
 8 0.108   2.50 -1.29  
 9 0.122   4.19  0.333 
10 0.126   3.50 -0.370 
# ℹ 90 more rows
> 
> m2 <- lm(y ~ poly(x, 2), data = df)
> df %>% spread_residuals(m1, m2)
# A tibble: 100 × 4
        x     y      m1     m2
    <dbl> <dbl>   <dbl>  <dbl>
 1 0.0134  3.47  0.129   0.315
 2 0.0233  2.50 -0.878  -0.703
 3 0.0589  3.64  0.0844  0.224
 4 0.0618  2.18 -1.39   -1.25 
 5 0.0707  4.79  1.18    1.31 
 6 0.0842  5.41  1.73    1.85 
 7 0.0995  3.14 -0.611  -0.509
 8 0.108   2.50 -1.29   -1.19 
 9 0.122   4.19  0.333   0.416
10 0.126   3.50 -0.370  -0.290
# ℹ 90 more rows
> df %>% gather_residuals(m1, m2)
# A tibble: 200 × 4
   model      x     y   resid
   <chr>  <dbl> <dbl>   <dbl>
 1 m1    0.0134  3.47  0.129 
 2 m1    0.0233  2.50 -0.878 
 3 m1    0.0589  3.64  0.0844
 4 m1    0.0618  2.18 -1.39  
 5 m1    0.0707  4.79  1.18  
 6 m1    0.0842  5.41  1.73  
 7 m1    0.0995  3.14 -0.611 
 8 m1    0.108   2.50 -1.29  
 9 m1    0.122   4.19  0.333 
10 m1    0.126   3.50 -0.370 
# ℹ 190 more rows
…
> 
> ### ** Examples
> 
> data_grid(mtcars, vs, am)
# A tibble: 4 × 2
     vs    am
  <dbl> <dbl>
1     0     0
2     0     1
3     1     0
4     1     1
> 
> # For continuous variables, seq_range is useful
> data_grid(mtcars, mpg = mpg)
# A tibble: 25 × 1
     mpg
   <dbl>
 1  10.4
 2  13.3
 3  14.3
 4  14.7
 5  15  
 6  15.2
 7  15.5
 8  15.8
 9  16.4
10  17.3
# ℹ 15 more rows
…
> 
> cleanEx()
> nameEx("model_matrix")
> ### * model_matrix
> 
> flush(stderr()); flush(stdout())
> 
> ### Name: model_matrix
> ### Title: Construct a design matrix
> ### Aliases: model_matrix
> 
> ### ** Examples
> 
> model_matrix(mtcars, mpg ~ cyl)
# A tibble: 32 × 2
   `(Intercept)`   cyl
           <dbl> <dbl>
 1             1     6
 2             1     6
 3             1     4
 4             1     6
 5             1     8
 6             1     6
 7             1     8
 8             1     4
 9             1     4
10             1     6
# ℹ 22 more rows
> model_matrix(iris, Sepal.Length ~ Species)
# A tibble: 150 × 3
   `(Intercept)` Speciesversicolor Speciesvirginica
           <dbl>             <dbl>            <dbl>
 1             1                 0                0
 2             1                 0                0
 3             1                 0                0
 4             1                 0                0
 5             1                 0                0
 6             1                 0                0
 7             1                 0                0
 8             1                 0                0
 9             1                 0                0
10             1                 0                0
# ℹ 140 more rows
> model_matrix(iris, Sepal.Length ~ Species - 1)
# A tibble: 150 × 3
   Speciessetosa Speciesversicolor Speciesvirginica
           <dbl>             <dbl>            <dbl>
 1             1                 0                0
 2             1                 0                0
 3             1                 0                0
 4             1                 0                0
 5             1                 0                0
 6             1                 0                0
 7             1                 0                0
 8             1                 0                0
 9             1                 0                0
10             1                 0                0
# ℹ 140 more rows
…
